#FIG 3.2
Landscape
Center
Inches
Letter  
100.00
Single
-2
1200 2
6 150 375 5775 2325
1 4 0 1 0 7 0 0 20 0.000 1 0.0000 1282 900 293 293 989 900 1575 900
1 4 0 1 0 7 10 0 20 0.000 1 0.0000 1582 675 293 293 1289 675 1875 675
1 4 0 1 0 7 0 0 20 0.000 1 0.0000 2032 900 293 293 1739 900 2325 900
1 4 0 1 0 7 10 0 20 0.000 1 0.0000 2257 675 293 293 1964 675 2550 675
1 4 0 1 0 7 10 0 -1 0.000 1 0.0000 907 675 293 293 614 675 1200 675
1 4 0 1 0 7 0 0 20 0.000 1 0.0000 593 900 293 293 300 900 886 900
1 4 0 1 0 7 0 0 20 0.000 1 0.0000 2739 916 293 293 2446 916 3032 916
1 4 0 1 0 7 0 0 20 0.000 1 0.0000 3489 916 293 293 3196 916 3782 916
1 4 0 1 0 7 10 0 20 0.000 1 0.0000 3059 691 293 293 2766 691 3352 691
2 2 0 1 0 7 0 0 -1 0.000 0 0 -1 0 0 5
	 150 1200 3900 1200 3900 2325 150 2325 150 1200
2 1 1 1 0 7 0 0 -1 4.000 0 0 -1 0 0 2
	 150 1800 3900 1800
4 0 0 0 0 0 12 0.0000 4 180 465 300 1425 Pages\001
4 0 0 0 0 0 12 0.0000 4 135 495 300 1650 Nodes\001
4 0 0 0 0 0 12 0.0000 4 135 795 1050 1425 Processes\001
4 0 0 0 0 0 12 0.0000 4 180 1245 1050 1650 Address Spaces\001
4 0 0 0 0 0 12 0.0000 4 180 1275 2475 1425 System Services\001
4 0 0 0 0 0 12 0.0000 4 135 330 2475 1650 Loci\001
4 0 0 0 0 0 12 0.0000 4 135 495 1500 2100 Nodes\001
4 0 0 0 0 0 12 0.0000 4 135 330 2550 2100 Loci\001
4 0 0 0 0 0 12 0.0000 4 180 465 600 2100 Pages\001
4 0 0 0 0 0 12 0.0000 4 180 1350 4125 900 Application Layer\001
4 0 0 0 0 0 12 0.0000 4 180 990 4125 1575 Object Layer\001
4 0 0 0 0 0 12 0.0000 4 180 1635 4125 2175 Representation Layer\001
-6
2 1 0 1 0 7 0 0 -1 0.000 0 0 -1 1 0 2
	2 1 1.00 60.00 120.00
	 3900 225 3300 525
2 1 0 1 0 7 0 0 -1 0.000 0 0 -1 1 0 2
	2 1 1.00 60.00 120.00
	 4050 225 3600 675
4 0 0 0 0 1 12 0.0000 4 135 750 3900 225 Processes\001
