#FIG 3.2
Landscape
Center
Inches
Letter  
100.00
Single
-2
1200 2
6 75 75 2325 900
6 300 375 1350 675
2 4 0 1 0 7 0 0 -1 0.000 0 0 7 0 0 5
	 1350 675 1350 375 300 375 300 675 1350 675
4 0 0 0 0 0 10 0.0000 4 135 870 375 600 Access Rights\001
-6
6 75 75 1350 375
2 2 0 1 0 7 0 0 -1 0.000 0 0 -1 0 0 5
	 75 75 1350 75 1350 375 75 375 75 75
4 0 0 0 0 0 10 0.0000 4 135 660 375 225 Descriptor\001
-6
2 3 0 1 0 7 0 0 -1 0.000 0 0 -1 0 0 12
	 1950 150 2250 75 2175 225 2250 375 2325 525 2025 825
	 1800 900 1575 750 1575 375 1800 300 1800 75 1950 150
2 1 0 1 0 7 0 0 -1 0.000 0 0 -1 1 0 2
	1 1 1.00 60.00 120.00
	 825 300 1800 300
4 0 0 0 0 0 10 0.0000 4 135 405 1650 600 Object\001
-6
