#FIG 3.2
Landscape
Center
Inches
Letter  
100.00
Single
-2
1200 2
5 1 1 1 0 7 0 0 -1 4.000 0 1 1 0 5325.000 396.429 4275 1050 4950 1575 5700 1575
	1 1 1.00 60.00 120.00
5 1 1 1 0 7 0 0 -1 4.000 0 0 1 0 5203.602 1551.483 4275 675 4950 300 5700 375
	1 1 1.00 60.00 120.00
5 1 0 1 0 7 0 0 -1 0.000 0 0 1 0 3891.346 574.038 3825 750 3750 450 4050 675
	1 1 1.00 60.00 120.00
5 1 1 1 0 7 0 0 -1 4.000 0 0 1 0 5512.500 1237.500 5325 1125 5625 1050 5700 1350
	1 1 1.00 60.00 120.00
5 1 1 1 0 7 0 0 -1 4.000 0 0 1 0 5319.643 433.929 5700 525 5550 750 5325 825
	1 1 1.00 60.00 120.00
5 1 1 1 0 7 0 0 -1 4.000 0 1 1 0 2100.000 396.429 1050 1050 1725 1575 2475 1575
	1 1 1.00 60.00 120.00
5 1 1 1 0 7 0 0 -1 4.000 0 0 1 0 1978.602 1551.483 1050 675 1725 300 2475 375
	1 1 1.00 60.00 120.00
5 1 0 1 0 7 0 0 -1 0.000 0 0 1 0 666.346 574.038 600 750 525 450 825 675
	1 1 1.00 60.00 120.00
5 1 1 1 0 7 0 0 -1 4.000 0 1 1 0 6281.250 1012.500 6075 1350 6675 975 6075 675
	1 1 1.00 60.00 120.00
1 4 0 1 0 7 0 0 -1 0.000 1 0.0000 4456 2090 270 270 4306 1865 4606 2315
1 4 0 1 0 7 0 0 -1 0.000 1 0.0000 825 900 270 270 675 675 975 1125
1 4 0 1 0 7 0 0 -1 0.000 1 0.0000 4050 900 270 270 3900 675 4200 1125
2 1 0 1 0 7 0 0 -1 0.000 0 0 -1 1 0 2
	1 1 1.00 60.00 120.00
	 4575 1875 4875 1125
2 2 0 1 0 7 0 0 -1 0.000 0 0 -1 0 0 5
	 4875 750 5325 750 5325 1125 4875 1125 4875 750
2 2 0 1 0 7 0 0 -1 0.000 0 0 -1 0 0 5
	 5700 300 6150 300 6150 675 5700 675 5700 300
2 2 0 1 0 7 0 0 -1 0.000 0 0 -1 0 0 5
	 5700 1350 6150 1350 6150 1725 5700 1725 5700 1350
2 1 0 1 0 7 0 0 -1 0.000 0 0 7 1 0 2
	1 1 1.00 60.00 120.00
	 4350 900 4875 900
2 1 0 1 0 7 0 0 -1 0.000 0 0 -1 1 0 2
	1 1 1.00 60.00 120.00
	 5250 1125 5700 1425
2 1 0 1 0 7 0 0 -1 0.000 0 0 -1 1 0 2
	1 1 1.00 60.00 120.00
	 5925 1350 5925 675
2 1 0 1 0 7 0 0 -1 0.000 0 0 -1 1 0 2
	1 1 1.00 60.00 120.00
	 5700 450 5100 750
2 2 0 1 0 7 0 0 -1 0.000 0 0 -1 0 0 5
	 1650 750 2100 750 2100 1125 1650 1125 1650 750
2 2 0 1 0 7 0 0 -1 0.000 0 0 -1 0 0 5
	 2475 300 2925 300 2925 675 2475 675 2475 300
2 2 0 1 0 7 0 0 -1 0.000 0 0 -1 0 0 5
	 2475 1350 2925 1350 2925 1725 2475 1725 2475 1350
2 1 0 1 0 7 0 0 -1 0.000 0 0 7 1 0 2
	1 1 1.00 60.00 120.00
	 1125 900 1650 900
2 1 0 1 0 7 0 0 -1 0.000 0 0 -1 1 0 2
	1 1 1.00 60.00 120.00
	 2025 1125 2475 1425
2 1 0 1 0 7 0 0 -1 0.000 0 0 -1 1 0 2
	1 1 1.00 60.00 120.00
	 2700 1350 2700 675
2 1 0 1 0 7 0 0 -1 0.000 0 0 -1 1 0 2
	1 1 1.00 60.00 120.00
	 2475 450 1875 750
4 0 0 0 0 0 12 0.0000 4 180 180 3975 975 p1\001
4 0 0 0 0 0 12 0.0000 4 135 180 5025 1050 o1\001
4 0 0 0 0 0 12 0.0000 4 135 180 5850 525 o2\001
4 0 0 0 0 0 12 0.0000 4 135 180 5850 1650 o3\001
4 0 0 0 0 0 12 0.0000 4 150 840 3300 375 ta,ga,ra,wa\001
4 0 0 0 0 0 12 0.0000 4 180 180 4350 2100 p2\001
4 0 0 0 0 0 12 0.0000 4 165 435 4950 225 dta,ra\001
4 0 0 0 0 0 12 0.0000 4 135 75 5775 1050 ?\001
4 0 0 0 0 0 12 0.0000 4 135 75 5625 900 ?\001
4 0 0 0 0 0 12 0.0000 4 180 180 750 975 p1\001
4 0 0 0 0 0 12 0.0000 4 135 180 1800 1050 o1\001
4 0 0 0 0 0 12 0.0000 4 135 180 2625 525 o2\001
4 0 0 0 0 0 12 0.0000 4 135 180 2625 1650 o3\001
4 0 0 0 0 0 12 0.0000 4 150 570 2775 1050 ta,ga,ra\001
4 0 0 0 0 0 12 0.0000 4 150 840 75 375 ta,ga,ra,wa\001
4 0 0 0 0 0 12 0.0000 4 150 840 3750 1725 ta,ga,ra,wa\001
4 0 0 0 0 0 12 0.0000 4 180 705 3750 1575 ti,gi,ri,wi,\001
4 0 0 0 0 0 12 0.0000 4 150 570 1800 525 ta,ga,ra\001
4 0 0 0 0 0 12 0.0000 4 150 570 1650 1350 ta,ga,ra\001
4 0 0 0 0 0 12 0.0000 4 165 435 1425 1725 dta,ra\001
4 0 0 0 0 0 12 0.0000 4 135 435 5100 1800 dta.ra\001
4 0 0 0 0 0 12 0.0000 4 150 570 4950 1425 ta,ga,ra\001
4 0 0 0 0 0 12 0.0000 4 150 570 4950 525 ta,ga,ra\001
4 0 0 0 0 0 12 0.0000 4 150 570 6000 1050 ta,ga,ra\001
4 0 0 0 0 0 12 0.0000 4 135 75 6750 1050 ?\001
4 0 0 0 0 0 12 0.0000 4 165 435 4350 825 dta,ra\001
4 0 0 0 0 0 12 0.0000 4 165 435 1125 825 dta,ra\001
4 0 0 0 0 0 12 0.0000 4 165 435 1200 300 dta,ra\001
