#FIG 3.2
Landscape
Center
Inches
Letter  
100.00
Single
-2
1200 2
1 4 0 1 0 7 100 0 -1 0.000 1 0.0000 337 787 219 219 225 600 450 975
2 1 0 1 0 7 0 0 -1 0.000 0 0 -1 1 0 4
	0 0 1.00 60.00 120.00
	 1950 2100 2550 2100 2550 1950 2775 1950
2 2 0 1 0 7 0 0 -1 0.000 0 0 -1 0 0 5
	 1875 1275 2325 1275 2325 2175 1875 2175 1875 1275
2 1 0 1 0 7 0 0 -1 0.000 0 0 -1 1 0 4
	0 0 1.00 60.00 120.00
	 1050 1425 1575 1425 1575 1275 1875 1275
2 1 1 1 0 7 100 0 -1 4.000 0 0 -1 1 0 5
	0 0 1.00 60.00 120.00
	 1275 375 1275 600 825 600 825 1425 975 1425
2 1 1 1 0 7 100 0 -1 4.000 0 0 -1 1 0 5
	0 0 1.00 60.00 120.00
	 2100 375 2100 1050 1575 1050 1575 2100 1875 2100
2 1 1 1 0 7 100 0 -1 4.000 0 0 -1 1 0 5
	0 0 1.00 60.00 120.00
	 2925 375 2925 1125 2475 1125 2475 2700 2775 2700
2 1 1 1 0 7 100 0 -1 4.000 0 0 -1 1 0 5
	0 0 1.00 60.00 120.00
	 3825 375 3825 1050 3300 1050 3300 2925 3600 2925
2 2 0 1 0 7 100 0 -1 0.000 0 0 -1 0 0 5
	 1725 75 900 75 900 375 1725 375 1725 75
2 2 0 1 0 7 100 0 -1 0.000 0 0 -1 0 0 5
	 2550 75 1725 75 1725 375 2550 375 2550 75
2 2 0 1 0 7 100 0 -1 0.000 0 0 -1 0 0 5
	 3375 75 2550 75 2550 375 3375 375 3375 75
2 2 0 1 0 7 100 0 -1 0.000 0 0 -1 0 0 5
	 4200 75 3375 75 3375 375 4200 375 4200 75
2 2 0 1 0 7 100 0 -1 0.000 0 0 -1 0 0 5
	 5175 75 4200 75 4200 375 5175 375 5175 75
2 1 1 1 0 7 100 0 -1 4.000 0 0 -1 1 0 5
	0 0 1.00 60.00 120.00
	 4725 375 4725 1050 4350 1050 4350 3075 4575 3075
2 2 0 1 0 7 0 0 -1 0.000 0 0 -1 0 0 5
	 3675 1275 4125 1275 4125 2175 3675 2175 3675 1275
2 2 0 1 0 7 0 0 -1 0.000 0 0 -1 0 0 5
	 3675 2550 4125 2550 4125 3450 3675 3450 3675 2550
2 2 0 1 0 7 0 0 -1 0.000 0 0 -1 0 0 5
	 2775 1950 3225 1950 3225 2850 2775 2850 2775 1950
2 1 0 1 0 7 0 0 -1 0.000 0 0 -1 1 0 4
	0 0 1.00 60.00 120.00
	 2850 2700 3375 2700 3375 2550 3675 2550
2 1 0 1 0 7 0 0 -1 0.000 0 0 -1 1 0 4
	0 0 1.00 60.00 120.00
	 2850 2100 3375 2100 3375 1275 3675 1275
2 1 0 1 0 7 0 0 -1 0.000 0 0 -1 1 0 2
	0 0 1.00 60.00 120.00
	 3750 2925 4575 2925
2 2 0 1 0 7 0 0 -1 0.000 0 0 -1 0 0 5
	 4575 2775 4950 2775 4950 3150 4575 3150 4575 2775
2 2 2 1 0 7 100 0 -1 3.000 0 0 -1 0 0 5
	 4500 1200 2625 1200 2625 3750 4500 3750 4500 1200
2 2 2 1 0 7 100 0 -1 3.000 0 0 -1 0 0 5
	 2400 525 675 525 675 2325 2400 2325 2400 525
2 2 0 1 0 7 0 0 -1 0.000 0 0 -1 0 0 5
	 975 675 1425 675 1425 1575 975 1575 975 675
2 1 0 1 0 7 0 0 -1 0.000 0 0 -1 1 0 2
	0 0 1.00 60.00 120.00
	 375 900 975 900
4 0 0 0 0 0 12 0.0000 4 135 120 1650 1500 B\001
4 0 0 100 0 0 12 0.0000 4 135 405 1950 300 26:22\001
4 0 0 100 0 0 12 0.0000 4 135 405 1050 300 31:27\001
4 0 0 100 0 0 12 0.0000 4 135 405 3525 300 16:12\001
4 0 0 100 0 0 12 0.0000 4 135 315 4650 300 11:0\001
4 0 0 100 0 0 12 0.0000 4 135 405 2775 300 21:17\001
4 0 0 0 0 0 12 0.0000 4 135 405 3675 3675 Node\001
4 0 0 0 0 0 12 0.0000 4 135 405 2850 3075 Node\001
4 0 0 0 0 0 12 0.0000 4 135 120 4200 2850 E\001
4 0 0 0 0 0 12 0.0000 4 135 120 2625 1875 C\001
4 0 0 0 0 0 12 0.0000 4 135 135 3450 2475 D\001
4 0 0 0 0 0 12 0.0000 4 180 375 4575 3450 Page\001
4 0 0 0 0 0 12 0.0000 4 135 135 225 825 A\001
4 0 0 100 0 0 12 0.0000 4 180 1140 675 2550 Page Directory\001
4 0 0 100 0 0 12 0.0000 4 180 840 2625 3975 Page Table\001
