#FIG 3.2
Portrait
Center
Inches
Letter  
100.00
Single
-2
1200 2
0 32 #e4a200
6 1650 1050 3150 1575
2 2 0 1 -1 7 2 0 15 0.000 0 0 7 0 0 5
	 1822 1114 1897 1114 1897 1514 1822 1514 1822 1114
2 2 0 1 -1 7 2 0 15 0.000 0 0 7 0 0 5
	 1897 1114 1972 1114 1972 1514 1897 1514 1897 1114
2 2 0 1 -1 7 2 0 15 0.000 0 0 7 0 0 5
	 1972 1114 2047 1114 2047 1514 1972 1514 1972 1114
2 2 0 1 -1 7 2 0 15 0.000 0 0 7 0 0 5
	 2047 1114 2122 1114 2122 1514 2047 1514 2047 1114
2 2 0 1 -1 7 2 0 15 0.000 0 0 7 0 0 5
	 2122 1114 2197 1114 2197 1514 2122 1514 2122 1114
2 2 0 1 -1 7 2 0 15 0.000 0 0 7 0 0 5
	 2197 1114 2272 1114 2272 1514 2197 1514 2197 1114
2 2 0 1 -1 7 2 0 15 0.000 0 0 7 0 0 5
	 2272 1114 2347 1114 2347 1514 2272 1514 2272 1114
2 2 0 1 -1 7 2 0 15 0.000 0 0 7 0 0 5
	 2347 1114 2422 1114 2422 1514 2347 1514 2347 1114
2 2 0 1 -1 7 2 0 15 0.000 0 0 7 0 0 5
	 2422 1114 2497 1114 2497 1514 2422 1514 2422 1114
2 2 0 1 -1 7 2 0 15 0.000 0 0 7 0 0 5
	 2497 1114 2572 1114 2572 1514 2497 1514 2497 1114
2 2 0 1 -1 7 2 0 15 0.000 0 0 7 0 0 5
	 2572 1114 2647 1114 2647 1514 2572 1514 2572 1114
2 2 0 1 -1 7 2 0 15 0.000 0 0 7 0 0 5
	 2647 1114 2722 1114 2722 1514 2647 1514 2647 1114
2 2 0 1 -1 7 2 0 15 0.000 0 0 7 0 0 5
	 2722 1114 2797 1114 2797 1514 2722 1514 2722 1114
2 2 0 1 -1 7 2 0 15 0.000 0 0 7 0 0 5
	 2797 1114 2872 1114 2872 1514 2797 1514 2797 1114
2 2 0 1 -1 7 2 0 15 0.000 0 0 7 0 0 5
	 2872 1114 2947 1114 2947 1514 2872 1514 2872 1114
2 2 0 1 -1 7 2 0 41 0.000 0 0 7 0 0 5
	 1747 1114 1822 1114 1822 1514 1747 1514 1747 1114
4 0 -1 2 0 0 6 0.0000 4 75 60 1672 1215 0\001
4 0 -1 2 0 0 6 0.0000 4 75 120 2985 1215 31\001
-6
6 1661 1894 3094 2490
2 2 0 1 -1 7 2 0 -1 0.000 0 0 7 0 0 5
	 1811 2089 1886 2089 1886 2490 1811 2490 1811 2089
2 2 0 1 -1 7 2 0 -1 0.000 0 0 7 0 0 5
	 1886 2089 1961 2089 1961 2490 1886 2490 1886 2089
2 2 0 1 -1 7 2 0 -1 0.000 0 0 7 0 0 5
	 1961 2089 2036 2089 2036 2490 1961 2490 1961 2089
2 2 0 1 -1 7 2 0 -1 0.000 0 0 7 0 0 5
	 2036 2089 2111 2089 2111 2490 2036 2490 2036 2089
2 2 0 1 -1 7 2 0 -1 0.000 0 0 7 0 0 5
	 2111 2089 2186 2089 2186 2490 2111 2490 2111 2089
2 2 0 1 -1 7 2 0 -1 0.000 0 0 7 0 0 5
	 2186 2089 2262 2089 2262 2490 2186 2490 2186 2089
2 2 0 1 -1 7 2 0 -1 0.000 0 0 7 0 0 5
	 2262 2089 2337 2089 2337 2490 2262 2490 2262 2089
2 2 0 1 -1 7 2 0 -1 0.000 0 0 7 0 0 5
	 2337 2089 2412 2089 2412 2490 2337 2490 2337 2089
2 2 0 1 -1 7 2 0 -1 0.000 0 0 7 0 0 5
	 2412 2089 2487 2089 2487 2490 2412 2490 2412 2089
2 2 0 1 -1 7 2 0 -1 0.000 0 0 7 0 0 5
	 2487 2089 2561 2089 2561 2490 2487 2490 2487 2089
2 2 0 1 -1 7 2 0 -1 0.000 0 0 7 0 0 5
	 2561 2089 2636 2089 2636 2490 2561 2490 2561 2089
2 2 0 1 -1 7 2 0 -1 0.000 0 0 7 0 0 5
	 2636 2089 2711 2089 2711 2490 2636 2490 2636 2089
2 2 0 1 -1 7 2 0 -1 0.000 0 0 7 0 0 5
	 2711 2089 2787 2089 2787 2490 2711 2490 2711 2089
2 2 0 1 -1 7 2 0 -1 0.000 0 0 7 0 0 5
	 2787 2089 2862 2089 2862 2490 2787 2490 2787 2089
2 2 0 1 -1 7 2 0 -1 0.000 0 0 7 0 0 5
	 2862 2089 2937 2089 2937 2490 2862 2490 2862 2089
2 2 0 1 -1 7 0 0 -1 0.000 0 0 7 0 0 5
	 1736 2089 1811 2089 1811 2490 1736 2490 1736 2089
4 0 -1 0 0 2 10 0.0000 4 165 1080 1809 2014 Registers Annex\001
4 0 -1 0 0 0 6 0.0000 4 75 60 1661 2189 0\001
4 0 -1 0 0 0 6 0.0000 4 75 120 2974 2189 31\001
-6
2 1 0 1 -1 7 0 0 -1 0.000 0 0 7 1 0 4
	1 1 1.00 60.00 120.00
	 1545 401 1545 1800 1725 1800 1725 2100
2 1 0 1 -1 7 0 0 -1 0.000 0 0 -1 1 0 4
	1 1 1.00 60.00 120.00
	 1616 401 1620 825 1740 825 1740 1110
2 2 0 1 -1 7 2 0 -1 0.000 0 0 7 0 0 5
	 1905 554 1905 444 2385 444 2385 554 1905 554
2 2 0 1 -1 7 0 0 15 0.000 0 0 7 0 0 5
	 1906 324 1906 210 2409 210 2409 324 1906 324
2 2 0 1 -1 7 0 0 19 0.000 0 0 7 0 0 5
	 1890 779 1890 659 2399 659 2399 779 1890 779
2 2 0 1 -1 7 0 0 -1 0.000 0 0 7 0 0 5
	 527 303 602 303 602 703 527 703 527 303
2 2 0 1 -1 7 2 0 -1 0.000 0 0 7 0 0 5
	 752 303 827 303 827 703 752 703 752 303
2 2 0 1 -1 7 2 0 -1 0.000 0 0 7 0 0 5
	 827 303 903 303 903 703 827 703 827 303
2 2 0 1 -1 7 2 0 -1 0.000 0 0 7 0 0 5
	 903 303 978 303 978 703 903 703 903 303
2 2 0 1 -1 7 2 0 -1 0.000 0 0 7 0 0 5
	 978 303 1053 303 1053 703 978 703 978 303
2 2 0 1 -1 7 2 0 -1 0.000 0 0 7 0 0 5
	 1053 303 1127 303 1127 703 1053 703 1053 303
2 2 0 1 -1 7 2 0 -1 0.000 0 0 7 0 0 5
	 1127 303 1202 303 1202 703 1127 703 1127 303
2 2 0 1 -1 7 2 0 -1 0.000 0 0 7 0 0 5
	 1202 303 1278 303 1278 703 1202 703 1202 303
2 2 0 1 -1 7 2 0 -1 0.000 0 0 7 0 0 5
	 1278 303 1352 303 1352 703 1278 703 1278 303
2 2 0 1 -1 7 2 0 -1 0.000 0 0 7 0 0 5
	 1352 303 1427 303 1427 703 1352 703 1352 303
2 2 0 1 -1 7 2 0 -1 0.000 0 0 7 0 0 5
	 1427 303 1502 303 1502 703 1427 703 1427 303
2 2 0 1 -1 7 2 0 19 0.000 0 0 7 0 0 5
	 1578 303 1653 303 1653 703 1578 703 1578 303
2 2 0 1 -1 7 2 0 19 0.000 0 0 7 0 0 5
	 1502 303 1578 303 1578 703 1502 703 1502 303
2 2 0 1 -1 7 0 0 -1 0.000 0 0 7 0 0 5
	 453 303 527 303 527 703 453 703 453 303
2 2 0 1 -1 7 2 0 -1 0.000 0 0 7 0 0 5
	 677 303 752 303 752 703 677 703 677 303
2 2 0 1 -1 7 2 0 19 0.000 0 0 7 0 0 5
	 602 303 677 303 677 703 602 703 602 303
2 1 0 1 -1 7 0 0 44 0.000 0 0 -1 1 0 2
	1 1 1.00 60.00 120.00
	 641 409 641 1016
2 1 0 1 -1 7 0 0 44 0.000 0 0 -1 0 1 2
	1 1 1.00 60.00 120.00
	 1770 1485 1770 1710
4 0 -1 0 0 2 10 0.0000 4 150 1230 2520 575 Number Capability\001
4 0 -1 0 0 2 10 0.0000 4 150 975 2533 324 Any Capability\001
4 0 -1 0 0 0 6 0.0000 4 75 60 378 404 0\001
4 0 -1 0 0 0 6 0.0000 4 75 120 1690 404 31\001
4 0 -1 0 0 2 10 0.0000 4 165 1320 1832 1024 Capability Registers\001
4 0 -1 0 0 2 10 0.0000 4 150 1080 2526 780 Node Capability\001
4 0 -1 0 0 2 10 0.0000 4 105 885 629 256 Process Root\001
4 0 -1 0 0 0 9 0.0000 4 135 1185 183 1162 (To Address Space)\001
4 0 -1 0 0 0 9 0.0000 4 135 930 1845 1725 (Always Zero)\001
