#FIG 3.2
Portrait
Center
Inches
Letter  
100.00
Single
-2
1200 2
2 2 0 1 -1 7 0 0 -1 0.000 0 0 0 0 0 5
	 1050 450 1800 450 1800 675 1050 675 1050 450
2 2 0 1 -1 7 0 0 -1 0.000 0 0 0 0 0 5
	 300 450 1050 450 1050 675 300 675 300 450
2 2 0 1 -1 7 0 0 -1 0.000 0 0 0 0 0 5
	 1800 450 3300 450 3300 675 1800 675 1800 450
2 2 0 1 -1 -1 0 0 -1 0.000 0 0 0 0 0 5
	 3300 675 3300 900 300 900 300 675 3300 675
2 2 0 1 -1 -1 0 0 -1 0.000 0 0 0 0 0 5
	 3300 1125 3300 1350 300 1350 300 1125 3300 1125
2 1 0 1 -1 7 0 0 -1 0.000 0 0 -1 1 0 4
	1 1 1.00 60.00 120.00
	 450 1200 150 1200 150 1725 450 1725
2 2 0 1 -1 7 0 0 -1 0.000 0 0 0 0 0 5
	 452 1652 1727 1652 1727 1877 452 1877 452 1652
2 2 0 1 -1 7 0 0 -1 0.000 0 0 0 0 0 5
	 452 1877 1727 1877 1727 2102 452 2102 452 1877
2 2 0 1 -1 -1 0 0 -1 0.000 0 0 0 0 0 5
	 3300 900 3300 1125 300 1125 300 900 3300 900
2 2 0 1 -1 7 0 0 -1 0.000 0 0 0 0 0 5
	 450 2100 1725 2100 1725 2325 450 2325 450 2100
2 2 0 1 -1 7 0 0 -1 0.000 0 0 0 0 0 5
	 450 2325 1725 2325 1725 2550 450 2550 450 2325
2 2 0 1 -1 7 0 0 -1 0.000 0 0 0 0 0 5
	 2325 1650 3076 1650 3076 2250 2325 2250 2325 1650
2 1 0 1 -1 7 0 0 -1 0.000 0 0 -1 1 0 4
	1 1 1.00 60.00 120.00
	 1575 2475 1950 2475 1950 1950 2325 1950
2 1 0 1 -1 7 0 0 -1 0.000 0 0 -1 1 0 2
	1 1 1.00 60.00 120.00
	 600 225 450 375
4 0 -1 0 0 3 10 0.0000 4 150 1230 525 1575 Object Table Entry\001
4 0 -1 0 0 2 10 0.0000 4 150 705 752 1802 OID[31:0]\001
4 0 -1 0 0 2 10 0.0000 4 105 855 752 2027 Alloc. Count\001
4 0 -1 0 0 2 10 0.0000 4 135 570 1125 600 SubType\001
4 0 -1 0 0 2 10 0.0000 4 105 300 2325 600 Info\001
4 0 -1 0 0 0 10 0.0000 4 105 75 375 600 1\001
4 0 -1 0 0 2 10 0.0000 4 135 330 525 600 Type\001
4 0 0 100 0 1 12 0.0000 4 90 180 900 600 xx\001
4 0 -1 0 0 2 10 0.0000 4 165 1575 1125 825 Allocation Count[31:0]\001
4 0 -1 0 0 2 10 0.0000 4 150 780 1350 1050 OID[63:32]\001
4 0 -1 0 0 2 10 0.0000 4 150 690 750 2475 Object Ptr\001
4 0 -1 0 0 2 10 0.0000 4 105 720 750 2250 Call Count\001
4 0 -1 0 0 3 10 0.0000 4 150 300 2550 1876 Page\001
4 0 -1 0 0 3 10 0.0000 4 75 135 2626 2026 or\001
4 0 -1 0 0 3 10 0.0000 4 105 345 2550 2175 Node\001
4 0 -1 0 0 1 10 0.0000 4 150 795 675 225 Prepared Bit\001
4 0 -1 0 0 2 10 0.0000 4 150 1815 975 1275 Object Table Entry Pointer\001
