#FIG 3.2
Portrait
Center
Inches
Letter  
100.00
Single
-2
1200 2
0 32 #e4a200
6 525 450 1950 900
2 2 0 1 -1 7 0 0 19 0.000 0 0 7 0 0 5
	 603 453 677 453 677 853 603 853 603 453
2 2 0 1 -1 7 0 0 19 0.000 0 0 7 0 0 5
	 677 453 752 453 752 853 677 853 677 453
2 2 0 1 -1 7 2 0 -1 0.000 0 0 7 0 0 5
	 752 453 827 453 827 853 752 853 752 453
2 2 0 1 -1 7 2 0 -1 0.000 0 0 7 0 0 5
	 827 453 902 453 902 853 827 853 827 453
2 2 0 1 -1 7 2 0 -1 0.000 0 0 7 0 0 5
	 902 453 977 453 977 853 902 853 902 453
2 2 0 1 -1 7 2 0 -1 0.000 0 0 7 0 0 5
	 977 453 1053 453 1053 853 977 853 977 453
2 2 0 1 -1 7 2 0 -1 0.000 0 0 7 0 0 5
	 1053 453 1128 453 1128 853 1053 853 1053 453
2 2 0 1 -1 7 2 0 -1 0.000 0 0 7 0 0 5
	 1128 453 1203 453 1203 853 1128 853 1128 453
2 2 0 1 -1 7 2 0 -1 0.000 0 0 7 0 0 5
	 1203 453 1277 453 1277 853 1203 853 1203 453
2 2 0 1 -1 7 2 0 -1 0.000 0 0 7 0 0 5
	 1277 453 1352 453 1352 853 1277 853 1277 453
2 2 0 1 -1 7 2 0 -1 0.000 0 0 7 0 0 5
	 1352 453 1428 453 1428 853 1352 853 1352 453
2 2 0 1 -1 7 2 0 -1 0.000 0 0 7 0 0 5
	 1428 453 1502 453 1502 853 1428 853 1428 453
2 2 0 1 -1 7 2 0 -1 0.000 0 0 7 0 0 5
	 1502 453 1577 453 1577 853 1502 853 1502 453
2 2 0 1 -1 7 2 0 -1 0.000 0 0 7 0 0 5
	 1577 453 1652 453 1652 853 1577 853 1577 453
2 2 0 1 -1 7 2 0 -1 0.000 0 0 7 0 0 5
	 1728 453 1803 453 1803 853 1728 853 1728 453
2 2 0 1 -1 7 2 0 -1 0.000 0 0 7 0 0 5
	 1652 453 1728 453 1728 853 1652 853 1652 453
4 0 -1 0 0 0 6 0.0000 4 75 60 528 554 0\001
4 0 -1 0 0 0 6 0.0000 4 75 120 1840 554 15\001
-6
6 1800 1275 3225 1725
2 2 0 1 -1 7 2 0 -1 0.000 0 0 7 0 0 5
	 1952 1278 2027 1278 2027 1679 1952 1679 1952 1278
2 2 0 1 -1 7 2 0 -1 0.000 0 0 7 0 0 5
	 2027 1278 2102 1278 2102 1679 2027 1679 2027 1278
2 2 0 1 -1 7 2 0 -1 0.000 0 0 7 0 0 5
	 2102 1278 2177 1278 2177 1679 2102 1679 2102 1278
2 2 0 1 -1 7 2 0 -1 0.000 0 0 7 0 0 5
	 2177 1278 2252 1278 2252 1679 2177 1679 2177 1278
2 2 0 1 -1 7 2 0 -1 0.000 0 0 7 0 0 5
	 2252 1278 2327 1278 2327 1679 2252 1679 2252 1278
2 2 0 1 -1 7 2 0 -1 0.000 0 0 7 0 0 5
	 2327 1278 2403 1278 2403 1679 2327 1679 2327 1278
2 2 0 1 -1 7 2 0 -1 0.000 0 0 7 0 0 5
	 2403 1278 2478 1278 2478 1679 2403 1679 2403 1278
2 2 0 1 -1 7 2 0 -1 0.000 0 0 7 0 0 5
	 2478 1278 2553 1278 2553 1679 2478 1679 2478 1278
2 2 0 1 -1 7 2 0 -1 0.000 0 0 7 0 0 5
	 2553 1278 2628 1278 2628 1679 2553 1679 2553 1278
2 2 0 1 -1 7 2 0 -1 0.000 0 0 7 0 0 5
	 2628 1278 2702 1278 2702 1679 2628 1679 2628 1278
2 2 0 1 -1 7 2 0 -1 0.000 0 0 7 0 0 5
	 2702 1278 2777 1278 2777 1679 2702 1679 2702 1278
2 2 0 1 -1 7 2 0 -1 0.000 0 0 7 0 0 5
	 2777 1278 2852 1278 2852 1679 2777 1679 2777 1278
2 2 0 1 -1 7 2 0 -1 0.000 0 0 7 0 0 5
	 2852 1278 2928 1278 2928 1679 2852 1679 2852 1278
2 2 0 1 -1 7 2 0 15 0.000 0 0 7 0 0 5
	 1877 1278 1952 1278 1952 1679 1877 1679 1877 1278
2 2 0 1 -1 7 2 0 15 0.000 0 0 7 0 0 5
	 2928 1278 3003 1278 3003 1679 2928 1679 2928 1278
2 2 0 1 -1 7 2 0 15 0.000 0 0 7 0 0 5
	 3003 1278 3078 1278 3078 1679 3003 1679 3003 1278
4 0 -1 0 0 0 6 0.0000 4 75 60 1802 1378 0\001
4 0 -1 0 0 0 6 0.0000 4 75 120 3115 1378 15\001
-6
6 150 1275 1575 1725
2 2 0 1 -1 7 2 0 15 0.000 0 0 7 0 0 5
	 228 1279 303 1279 303 1679 228 1679 228 1279
2 2 0 1 -1 7 2 0 15 0.000 0 0 7 0 0 5
	 303 1279 378 1279 378 1679 303 1679 303 1279
2 2 0 1 -1 7 2 0 15 0.000 0 0 7 0 0 5
	 378 1279 453 1279 453 1679 378 1679 378 1279
2 2 0 1 -1 7 2 0 15 0.000 0 0 7 0 0 5
	 453 1279 528 1279 528 1679 453 1679 453 1279
2 2 0 1 -1 7 2 0 15 0.000 0 0 7 0 0 5
	 528 1279 603 1279 603 1679 528 1679 528 1279
2 2 0 1 -1 7 2 0 15 0.000 0 0 7 0 0 5
	 603 1279 678 1279 678 1679 603 1679 603 1279
2 2 0 1 -1 7 2 0 15 0.000 0 0 7 0 0 5
	 678 1279 753 1279 753 1679 678 1679 678 1279
2 2 0 1 -1 7 2 0 15 0.000 0 0 7 0 0 5
	 753 1279 828 1279 828 1679 753 1679 753 1279
2 2 0 1 -1 7 2 0 15 0.000 0 0 7 0 0 5
	 828 1279 903 1279 903 1679 828 1679 828 1279
2 2 0 1 -1 7 2 0 15 0.000 0 0 7 0 0 5
	 903 1279 978 1279 978 1679 903 1679 903 1279
2 2 0 1 -1 7 2 0 15 0.000 0 0 7 0 0 5
	 978 1279 1053 1279 1053 1679 978 1679 978 1279
2 2 0 1 -1 7 2 0 15 0.000 0 0 7 0 0 5
	 1053 1279 1128 1279 1128 1679 1053 1679 1053 1279
2 2 0 1 -1 7 2 0 15 0.000 0 0 7 0 0 5
	 1128 1279 1203 1279 1203 1679 1128 1679 1128 1279
2 2 0 1 -1 7 2 0 15 0.000 0 0 7 0 0 5
	 1203 1279 1278 1279 1278 1679 1203 1679 1203 1279
2 2 0 1 -1 7 2 0 15 0.000 0 0 7 0 0 5
	 1278 1279 1353 1279 1353 1679 1278 1679 1278 1279
2 2 0 1 -1 7 2 0 15 0.000 0 0 7 0 0 5
	 1353 1279 1428 1279 1428 1679 1353 1679 1353 1279
4 0 -1 2 0 0 6 0.0000 4 75 60 153 1380 0\001
4 0 -1 2 0 0 6 0.0000 4 75 120 1466 1380 15\001
-6
2 1 0 1 -1 7 0 0 -1 0.000 0 0 7 1 0 4
	1 1 1.00 60.00 120.00
	 630 600 630 975 225 975 225 1275
2 1 0 1 -1 7 0 0 -1 0.000 0 0 -1 1 0 4
	1 1 1.00 60.00 120.00
	 720 615 720 975 1890 975 1890 1260
2 1 0 1 -1 7 0 0 -1 0.000 0 0 -1 1 0 3
	1 1 1.00 60.00 120.00
	 255 1440 255 1785 180 2010
2 2 0 1 -1 7 0 0 -1 0.000 0 0 0 0 0 5
	 390 1995 525 1995 525 2145 390 2145 390 1995
2 2 0 1 -1 7 0 0 -1 0.000 0 0 0 0 0 5
	 645 1995 780 1995 780 2145 645 2145 645 1995
2 2 0 1 -1 7 0 0 -1 0.000 0 0 0 0 0 5
	 885 1995 1020 1995 1020 2145 885 2145 885 1995
2 2 0 1 -1 7 0 0 -1 0.000 0 0 0 0 0 5
	 1110 1995 1245 1995 1245 2145 1110 2145 1110 1995
2 2 0 1 -1 7 0 0 -1 0.000 0 0 0 0 0 5
	 1335 1995 1470 1995 1470 2145 1335 2145 1335 1995
2 2 0 1 -1 7 0 0 -1 0.000 0 0 0 0 0 5
	 1560 1995 1695 1995 1695 2145 1560 2145 1560 1995
2 2 0 1 -1 7 0 0 -1 0.000 0 0 0 0 0 5
	 1785 1995 1920 1995 1920 2145 1785 2145 1785 1995
2 2 0 1 -1 7 0 0 -1 0.000 0 0 0 0 0 5
	 120 1995 255 1995 255 2145 120 2145 120 1995
2 2 0 1 -1 7 0 0 -1 0.000 0 0 0 0 0 5
	 240 2235 375 2235 375 2385 240 2385 240 2235
2 2 0 1 -1 7 0 0 -1 0.000 0 0 0 0 0 5
	 510 2250 645 2250 645 2400 510 2400 510 2250
2 2 0 1 -1 7 0 0 -1 0.000 0 0 0 0 0 5
	 750 2250 885 2250 885 2400 750 2400 750 2250
2 2 0 1 -1 7 0 0 -1 0.000 0 0 0 0 0 5
	 975 2250 1110 2250 1110 2400 975 2400 975 2250
2 2 0 1 -1 7 0 0 -1 0.000 0 0 0 0 0 5
	 1230 2250 1365 2250 1365 2400 1230 2400 1230 2250
2 2 0 1 -1 7 0 0 -1 0.000 0 0 0 0 0 5
	 1455 2250 1590 2250 1590 2400 1455 2400 1455 2250
2 2 0 1 -1 7 0 0 -1 0.000 0 0 0 0 0 5
	 1680 2250 1815 2250 1815 2400 1680 2400 1680 2250
2 2 0 1 -1 7 0 0 -1 0.000 0 0 0 0 0 5
	 1950 2250 2085 2250 2085 2400 1950 2400 1950 2250
2 1 0 1 -1 7 0 0 -1 0.000 0 0 -1 1 0 3
	1 1 1.00 60.00 120.00
	 1305 1440 1305 1755 1845 1980
2 1 0 1 -1 7 0 0 -1 0.000 0 0 -1 1 0 3
	1 1 1.00 60.00 120.00
	 1155 1455 1155 1755 1620 1980
2 1 0 1 -1 7 0 0 -1 0.000 0 0 -1 1 0 3
	1 1 1.00 60.00 120.00
	 1020 1470 1020 1770 1395 1980
2 1 0 1 -1 7 0 0 -1 0.000 0 0 -1 1 0 3
	1 1 1.00 60.00 120.00
	 855 1455 855 1725 1170 1980
2 1 0 1 -1 7 0 0 -1 0.000 0 0 -1 1 0 3
	1 1 1.00 60.00 120.00
	 705 1455 705 1770 960 1995
2 1 0 1 -1 7 0 0 -1 0.000 0 0 -1 1 0 3
	1 1 1.00 60.00 120.00
	 555 1455 555 1770 705 1980
2 1 0 1 -1 7 0 0 -1 0.000 0 0 -1 1 0 3
	1 1 1.00 60.00 120.00
	 330 1440 330 1770 315 2220
2 1 0 1 -1 7 0 0 -1 0.000 0 0 -1 1 0 4
	1 1 1.00 60.00 120.00
	 480 1455 480 1755 570 1995 570 2235
2 1 0 1 -1 7 0 0 -1 0.000 0 0 -1 1 0 4
	1 1 1.00 60.00 120.00
	 630 1440 630 1755 825 1965 825 2250
2 1 0 1 -1 7 0 0 -1 0.000 0 0 -1 1 0 4
	1 1 1.00 60.00 120.00
	 780 1455 780 1755 1065 1965 1065 2235
2 1 0 1 -1 7 0 0 -1 0.000 0 0 -1 1 0 3
	1 1 1.00 60.00 120.00
	 420 1440 420 1770 465 1980
2 1 0 1 -1 7 0 0 -1 0.000 0 0 -1 1 0 4
	1 1 1.00 60.00 120.00
	 945 1449 945 1755 1290 1980 1275 2235
2 1 0 1 -1 7 0 0 -1 0.000 0 0 -1 1 0 4
	1 1 1.00 60.00 120.00
	 1080 1440 1080 1740 1515 1980 1500 2235
2 1 0 1 -1 7 0 0 -1 0.000 0 0 -1 1 0 4
	1 1 1.00 60.00 120.00
	 1230 1455 1230 1740 1740 1995 1740 2250
2 1 0 1 -1 7 0 0 -1 0.000 0 0 -1 1 0 4
	1 1 1.00 60.00 120.00
	 1395 1443 1395 1725 2010 1980 2025 2250
2 2 0 1 -1 7 0 0 -1 0.000 0 0 0 0 0 5
	 2355 1935 2490 1935 2490 2085 2355 2085 2355 1935
2 2 0 1 -1 7 0 0 -1 0.000 0 0 0 0 0 5
	 2820 1935 2955 1935 2955 2085 2820 2085 2820 1935
2 2 0 1 -1 7 0 0 -1 0.000 0 0 0 0 0 5
	 3045 1935 3180 1935 3180 2085 3045 2085 3045 1935
2 1 0 1 -1 7 0 0 -1 0.000 0 0 -1 1 0 3
	1 1 1.00 60.00 120.00
	 1905 1425 1905 1785 2370 1935
2 1 0 1 -1 7 0 0 -1 0.000 0 0 -1 1 0 3
	1 1 1.00 60.00 120.00
	 2970 1410 2970 1755 2895 1920
2 1 0 1 -1 7 0 0 -1 0.000 0 0 -1 1 0 3
	1 1 1.00 60.00 120.00
	 3030 1410 3030 1785 3105 1920
2 2 0 1 -1 7 2 0 -1 0.000 0 0 7 0 0 5
	 2055 704 2055 594 2535 594 2535 704 2055 704
2 1 0 1 -1 7 0 0 -1 0.000 0 0 -1 1 0 4
	1 1 1.00 60.00 120.00
	 825 150 150 150 150 450 450 450
2 2 0 1 -1 7 0 0 15 0.000 0 0 7 0 0 5
	 2056 474 2056 360 2559 360 2559 474 2056 474
2 2 0 1 -1 7 0 0 19 0.000 0 0 7 0 0 5
	 465 225 974 225 974 105 465 105 465 225
2 2 0 1 -1 7 0 0 19 0.000 0 0 7 0 0 5
	 2040 929 2040 809 2549 809 2549 929 2040 929
4 0 -1 0 0 2 10 0.0000 4 105 345 2282 1212 node\001
4 0 -1 0 0 2 10 0.0000 4 105 345 677 1227 node\001
4 0 -1 0 0 2 10 0.0000 4 150 375 782 2712 Pages\001
4 0 -1 0 0 2 10 0.0000 4 105 345 1007 417 node\001
4 0 -1 0 0 2 10 0.0000 4 150 1080 2676 930 Node Capability\001
4 0 -1 0 0 2 10 0.0000 4 150 990 2670 725 Null Capability\001
4 0 -1 0 0 2 10 0.0000 4 165 1020 2683 474 Page Capability\001
4 0 -1 0 0 2 10 0.0000 4 150 1035 1026 180 Node Capablity\001
