#FIG 3.2
Landscape
Center
Inches
Letter  
100.00
Single
-2
1200 2
2 2 0 1 0 7 0 0 -1 0.000 0 0 -1 0 0 5
	 1500 75 1950 75 1950 975 1500 975 1500 75
2 2 0 1 0 7 0 0 -1 0.000 0 0 -1 0 0 5
	 1500 1350 1950 1350 1950 2250 1500 2250 1500 1350
2 2 0 1 0 7 0 0 -1 0.000 0 0 -1 0 0 5
	 600 750 1050 750 1050 1650 600 1650 600 750
2 1 0 1 0 7 0 0 -1 0.000 0 0 -1 1 0 4
	0 0 1.00 60.00 120.00
	 675 1500 1200 1500 1200 1350 1500 1350
2 1 0 1 0 7 0 0 -1 0.000 0 0 -1 1 0 4
	0 0 1.00 60.00 120.00
	 675 900 1200 900 1200 75 1500 75
2 1 0 1 0 7 0 0 -1 0.000 0 0 -1 1 0 2
	0 0 1.00 60.00 120.00
	 1575 1725 2250 1725
2 2 0 1 0 7 0 0 -1 0.000 0 0 -1 0 0 5
	 2250 1575 2625 1575 2625 1950 2250 1950 2250 1575
2 1 0 1 0 7 0 0 -1 0.000 0 0 -1 1 0 2
	0 0 1.00 60.00 120.00
	 150 750 600 750
4 0 0 0 0 0 12 0.0000 4 180 375 2250 2250 Page\001
4 0 0 0 0 0 12 0.0000 4 135 405 1500 2475 Node\001
4 0 0 0 0 0 12 0.0000 4 135 405 675 1875 Node\001
4 0 0 0 0 0 12 0.0000 4 135 135 300 675 A\001
4 0 0 0 0 0 12 0.0000 4 135 120 1125 1275 B\001
4 0 0 0 0 0 12 0.0000 4 135 120 2025 1650 C\001
4 0 0 0 0 0 12 0.0000 4 135 180 300 1575 27\001
4 0 0 0 0 0 12 0.0000 4 135 90 1350 1800 5\001
