#FIG 3.2
Portrait
Center
Inches
Letter  
100.00
Single
-2
1200 2
1 4 0 1 0 7 100 0 -1 0.000 1 0.0000 1125 825 270 270 975 600 1275 1050
1 4 0 1 0 7 100 0 -1 0.000 1 0.0000 1125 1875 270 270 975 1650 1275 2100
2 2 0 1 0 7 100 0 -1 0.000 0 0 -1 0 0 5
	 2400 150 2925 150 2925 525 2400 525 2400 150
2 2 0 1 0 7 100 0 -1 0.000 0 0 -1 0 0 5
	 2400 1200 2925 1200 2925 1575 2400 1575 2400 1200
2 1 0 1 0 7 100 0 -1 0.000 0 0 -1 1 0 2
	2 1 1.00 60.00 120.00
	 1350 750 2400 300
2 1 0 1 0 7 100 0 -1 0.000 0 0 -1 1 0 2
	2 1 1.00 60.00 120.00
	 1425 900 2400 1200
2 1 0 1 0 7 100 0 -1 0.000 0 0 -1 1 0 2
	2 1 1.00 60.00 120.00
	 1425 1950 2400 2325
2 2 0 1 0 7 100 0 -1 0.000 0 0 -1 0 0 5
	 2400 2325 2925 2325 2925 2700 2400 2700 2400 2325
4 0 0 100 0 1 12 0.0000 4 180 300 150 825 fred\001
4 0 0 100 0 1 12 0.0000 4 135 465 75 1950 wilma\001
4 0 0 100 0 0 12 0.0000 4 180 180 1050 900 p1\001
4 0 0 100 0 0 12 0.0000 4 180 180 1050 1950 p2\001
4 0 0 100 0 0 12 0.0000 4 135 180 2550 375 o1\001
4 0 0 100 0 0 12 0.0000 4 135 180 2550 1500 o2\001
4 0 0 100 0 0 12 0.0000 4 135 180 2550 2550 o3\001
4 0 0 100 0 0 12 0.0000 4 120 240 1875 2100 r,w\001
4 0 0 100 0 0 12 0.0000 4 120 240 1725 450 r,w\001
4 0 0 100 0 0 12 0.0000 4 90 60 1875 1275 r\001
