#FIG 3.2
Portrait
Center
Inches
Letter  
100.00
Single
-2
1200 2
6 4425 600 5700 1050
2 1 0 1 0 7 100 0 -1 4.000 0 0 7 1 0 2
	2 1 1.00 60.00 120.00
	 4425 675 4800 675
2 1 1 1 0 7 100 0 -1 4.000 0 0 7 1 0 2
	2 1 1.00 60.00 120.00
	 4425 900 4800 900
4 0 0 100 0 0 12 0.0000 4 135 825 4875 750 read-write\001
4 0 0 100 0 0 12 0.0000 4 180 750 4875 975 read-only\001
-6
2 2 0 1 0 7 100 0 -1 4.000 0 0 7 0 0 5
	 1500 1500 2325 1500 2325 1725 1500 1725 1500 1500
2 2 0 1 0 7 100 0 -1 4.000 0 0 7 0 0 5
	 450 1500 1275 1500 1275 1725 450 1725 450 1500
2 2 0 1 0 7 100 0 -1 4.000 0 0 7 0 0 5
	 975 825 1800 825 1800 1050 975 1050 975 825
2 2 0 1 0 7 100 0 15 0.000 0 0 7 0 0 5
	 1500 2100 1650 2100 1650 2250 1500 2250 1500 2100
2 2 0 1 0 7 100 0 -1 4.000 0 0 7 0 0 5
	 975 2100 1125 2100 1125 2250 975 2250 975 2100
2 2 0 1 0 7 100 0 -1 4.000 0 0 7 0 0 5
	 750 2100 900 2100 900 2250 750 2250 750 2100
2 2 0 1 0 7 100 0 -1 4.000 0 0 7 0 0 5
	 525 2100 675 2100 675 2250 525 2250 525 2100
2 2 0 1 0 7 100 0 -1 4.000 0 0 7 0 0 5
	 300 2100 450 2100 450 2250 300 2250 300 2100
2 1 0 1 0 7 100 0 -1 0.000 0 0 7 1 0 2
	2 1 1.00 60.00 120.00
	 1350 375 1350 825
2 1 1 1 0 7 100 0 -1 4.000 0 0 7 1 0 4
	2 1 1.00 60.00 120.00
	 1125 900 1125 1125 1575 1125 1575 1500
2 1 1 1 0 7 100 0 -1 4.000 0 0 7 1 0 4
	2 1 1.00 60.00 120.00
	 3225 900 3225 1200 900 1200 900 1500
2 1 1 1 0 7 100 0 -1 4.000 0 0 7 1 0 4
	2 1 1.00 60.00 120.00
	 1050 900 1050 1125 750 1125 750 1500
2 1 1 1 0 7 100 0 -1 4.000 0 0 7 1 0 4
	2 1 1.00 60.00 120.00
	 525 1575 525 1800 375 1800 375 2100
2 1 1 1 0 7 100 0 -1 4.000 0 0 7 1 0 2
	2 1 1.00 60.00 120.00
	 600 1575 600 2100
2 1 1 1 0 7 100 0 -1 4.000 0 0 7 1 0 4
	2 1 1.00 60.00 120.00
	 675 1575 675 1875 825 1875 825 2100
2 1 1 1 0 7 100 0 -1 4.000 0 0 7 1 0 4
	2 1 1.00 60.00 120.00
	 750 1575 750 1800 1050 1800 1050 2100
2 1 1 1 0 7 100 0 -1 4.000 0 0 7 1 0 2
	2 1 1.00 60.00 120.00
	 1575 1575 1575 2100
2 2 0 1 0 7 100 0 -1 4.000 0 0 7 0 0 5
	 3150 825 3975 825 3975 1050 3150 1050 3150 825
2 1 0 1 0 7 100 0 -1 4.000 0 0 -1 1 0 4
	2 1 1.00 60.00 120.00
	 3300 900 3300 1125 3750 1125 3750 1500
2 2 0 1 0 7 100 0 -1 4.000 0 0 7 0 0 5
	 3600 1500 4425 1500 4425 1725 3600 1725 3600 1500
2 2 0 1 0 7 100 0 -1 4.000 0 0 7 0 0 5
	 3600 2100 3750 2100 3750 2250 3600 2250 3600 2100
2 1 0 1 0 7 100 0 -1 4.000 0 0 -1 1 0 2
	2 1 1.00 60.00 120.00
	 3675 1575 3675 2100
2 1 0 1 0 7 100 0 -1 4.000 0 0 7 1 0 2
	2 1 1.00 60.00 120.00
	 3525 375 3525 825
2 2 0 1 0 7 100 0 -1 4.000 0 0 7 0 0 5
	 1725 2100 1875 2100 1875 2250 1725 2250 1725 2100
2 1 1 1 0 7 100 0 -1 4.000 0 0 7 1 0 4
	2 1 1.00 60.00 120.00
	 1650 1575 1650 1800 1800 1800 1800 2100
2 1 1 1 0 7 100 0 -1 4.000 0 0 7 1 0 5
	2 1 1.00 60.00 120.00
	 3750 1575 3750 1800 2175 1800 2175 2175 1875 2175
4 0 0 100 0 0 12 0.0000 4 180 2055 525 300 Original Space (read-only)\001
4 0 0 100 0 0 12 0.0000 4 180 1590 2850 300 After Copy On Write\001
4 0 0 100 0 0 12 0.0000 4 180 1695 3900 2250 (copy of shaded page)\001
