%!PS
%%Version: 3.15
%%DocumentFonts: (atend)
%%Pages: (atend)
%%EndComments
%ident	"@(#)lp:filter/postscript/postscript/dpost.ps	1.1"
%
% Version 3.16 prologue for troff files.
%

/#copies 1 store
/aspectratio 1 def
/formsperpage 1 def
/landscape false def
/linewidth .3 def
/magnification 1 def
/margin 0 def
/orientation 0 def
/resolution 720 def
/xoffset 0 def
/yoffset 0 def

/roundpage true def
/useclippath true def
/pagebbox [0 0 612 792] def

/R  /Times-Roman def
/I  /Times-Italic def
/B  /Times-Bold def
/BI /Times-BoldItalic def
/H  /Helvetica def
/HI /Helvetica-Oblique def
/HB /Helvetica-Bold def
/HX /Helvetica-BoldOblique def
/CW /Courier def
/CO /Courier def
/CI /Courier-Oblique def
/CB /Courier-Bold def
/CX /Courier-BoldOblique def
/PA /Palatino-Roman def
/PI /Palatino-Italic def
/PB /Palatino-Bold def
/PX /Palatino-BoldItalic def
/Hr /Helvetica-Narrow def
/Hi /Helvetica-Narrow-Oblique def
/Hb /Helvetica-Narrow-Bold def
/Hx /Helvetica-Narrow-BoldOblique def
/KR /Bookman-Light def
/KI /Bookman-LightItalic def
/KB /Bookman-Demi def
/KX /Bookman-DemiItalic def
/AR /AvantGarde-Book def
/AI /AvantGarde-BookOblique def
/AB /AvantGarde-Demi def
/AX /AvantGarde-DemiOblique def
/NR /NewCenturySchlbk-Roman def
/NI /NewCenturySchlbk-Italic def
/NB /NewCenturySchlbk-Bold def
/NX /NewCenturySchlbk-BoldItalic def
/ZD /ZapfDingbats def
/ZI /ZapfChancery-MediumItalic def
/VR /Varitimes#Roman def
/VI /Varitimes#Italic def
/VB /Varitimes#Bold def
/VX /Varitimes#BoldItalic def
/S  /S def
/S1 /S1 def
/GR /Symbol def

/inch {72 mul} bind def
/min {2 copy gt {exch} if pop} bind def

/setup {
	counttomark 2 idiv {def} repeat pop

	landscape {/orientation 90 orientation add def} if
	/scaling 72 resolution div def
	linewidth setlinewidth
	1 setlinecap

	pagedimensions
	xcenter ycenter translate
	orientation neg rotate
	width 2 div neg height 2 div translate
	xoffset inch yoffset inch translate
	margin 2 div dup neg translate
	magnification dup aspectratio mul scale
	scaling scaling scale

	/Symbol /S Sdefs cf
	/Times-Roman /S1 S1defs cf
	0 0 moveto
} def

/pagedimensions {
	useclippath userdict /gotpagebbox known not and {
		/pagebbox [clippath pathbbox newpath] def
		roundpage currentdict /roundpagebbox known and {roundpagebbox} if
	} if
	pagebbox aload pop
	4 -1 roll exch 4 1 roll 4 copy
	landscape {4 2 roll} if
	sub /width exch def
	sub /height exch def
	add 2 div /xcenter exch def
	add 2 div /ycenter exch def
	userdict /gotpagebbox true put
} def

/pagesetup {
	/page exch def
	currentdict /pagedict known currentdict page known and {
		page load pagedict exch get cvx exec
	} if
} def

/decodingdefs [
	{counttomark 2 idiv {y moveto show} repeat}
	{neg /y exch def counttomark 2 idiv {y moveto show} repeat}
	{neg moveto {2 index stringwidth pop sub exch div 0 32 4 -1 roll widthshow} repeat}
	{neg moveto {spacewidth sub 0.0 32 4 -1 roll widthshow} repeat}
	{counttomark 2 idiv {y moveto show} repeat}
	{neg setfunnytext}
] def

/setdecoding {/t decodingdefs 3 -1 roll get bind def} bind def

/w {neg moveto show} bind def
/m {neg dup /y exch def moveto} bind def
/done {/lastpage where {pop lastpage} if} def

/f {
	dup /font exch def findfont exch
	dup /ptsize exch def scaling div dup /size exch def scalefont setfont
	linewidth ptsize mul scaling 10 mul div setlinewidth
	/spacewidth ( ) stringwidth pop def
} bind def

/changefont {
	/fontheight exch def
	/fontslant exch def
	currentfont [
		1 0
		fontheight ptsize div fontslant sin mul fontslant cos div
		fontheight ptsize div
		0 0
	] makefont setfont
} bind def

/sf {f} bind def

/cf {
	dup length 2 idiv
	/entries exch def
	/chtab exch def
	/newfont exch def

	findfont dup length 1 add dict
	/newdict exch def
	{1 index /FID ne {newdict 3 1 roll put} {pop pop} ifelse} forall

	newdict /Metrics entries dict put
	newdict /Metrics get
	begin
		chtab aload pop
		1 1 entries {pop def} for
		newfont newdict definefont pop
	end
} bind def

%
% A few arrays used to adjust reference points and character widths in some
% of the printer resident fonts. If square roots are too high try changing
% the lines describing /radical and /radicalex to,
%
%	/radical	[0 -75 550 0]
%	/radicalex	[-50 -75 500 0]
%

/Sdefs [
	/bracketlefttp		[220 500]
	/bracketleftbt		[220 500]
	/bracketrighttp		[-70 380]
	/bracketrightbt		[-70 380]
	/braceleftbt		[220 490]
	/bracketrightex		[220 -125 500 0]
	/radical		[0 0 550 0]
	% NeWSprint's \(br is too low, compensate
	statusdict /product get (NeWS Server) eq {
		/radicalex		[-50 100 500 0]
		/parenleftex		[-20 100 0 0]

	} {
		/radicalex		[-50 0 500 0]
		/parenleftex		[-20 -170 0 0]
	} ifelse
	/integral		[100 -50 500 0]
	/infinity		[10 -75 730 0]
] def

/S1defs [
	/underscore		[0 80 500 0]
	/endash			[7 90 650 0]
] def
%%EndProlog
%%BeginSetup
mark
/resolution 720 def
setup
2 setdecoding
%%EndSetup
%%Page: 1 1
save
mark
1 pagesetup
10 R f
( Schily)1 1267(CDRECORD \( 1 \))3 709 2 720 480 t
10 S1 f
(\302)2696 480 w
10 R f
( \( 1 \))3 164( CDRECORD)1 1557(s USER COMMANDS)2 950 3 2729 480 t
9 B f
(NAME)720 960 w
10 R f
(cdrecord)1080 1080 w
10 S1 f
(\261)1461 1080 w
10 R f
(record audio or data Compact Discs from a master)8 2076 1 1559 1080 t
9 B f
(SYNOPSIS)720 1248 w
10 B f
(cdrecord)1080 1368 w
10 R f
([)1495 1368 w
10 I f
(general options)1 633 1 1561 1368 t
10 R f
(])2227 1368 w
10 B f
(dev=)2293 1368 w
10 I f
(device)2500 1368 w
10 R f
([)2787 1368 w
10 I f
(track options)1 533 1 2853 1368 t
10 R f
(])3419 1368 w
10 I f
(track1)3485 1368 w
10 R f
(. . .)2 107 1 3748 1368 t
10 I f
(trackn)3855 1368 w
9 B f
(DESCRIPTION)720 1656 w
10 B f
(Cdrecord)1080 1776 w
10 R f
(is used to record data or audio Compact Discs on an Orange Book CD-Recorder.)13 3331 1 1523 1776 t
(The)1080 1944 w
10 I f
(device)1273 1944 w
10 R f
(refers to)1 342 1 1565 1944 t
10 I f
(scsibus)1945 1944 w
10 R f
(/)2242 1944 w
10 I f
(target)2270 1944 w
10 R f
(/)2517 1944 w
10 I f
(lun)2545 1944 w
10 R f
(of the CD-Recorder. Communication on)4 1664 1 2711 1944 t
10 I f
(SunOS)4413 1944 w
10 R f
( with the)2 378(is done)1 299 2 4723 1944 t
(SCSI general driver)2 819 1 1080 2064 t
10 B f
(scg.)1937 2064 w
10 R f
( Possible)1 404(Other operating systems are using a library simulation of this driver.)10 2863 2 2133 2064 t
(syntax is:)1 401 1 1080 2184 t
10 B f
(dev=)1559 2184 w
10 I f
(scsibus)1811 2184 w
10 R f
(,)2108 2184 w
10 I f
(target)2133 2184 w
10 R f
(,)2380 2184 w
10 I f
(lun)2405 2184 w
10 R f
(or)2578 2184 w
10 B f
(dev=)2706 2184 w
10 I f
(target)2958 2184 w
10 R f
(,)3205 2184 w
10 I f
(lun)3230 2184 w
10 R f
( be)1 140( the latter case, the CD-Recorder has to)7 1708(. In)1 186 3 3366 2184 t
(connected to the default SCSI bus of the machine.)8 2128 1 1080 2304 t
10 I f
(Scsibus)3281 2304 w
10 R f
(,)3589 2304 w
10 I f
(target)3654 2304 w
10 R f
(and)3933 2304 w
10 I f
(lun)4117 2304 w
10 R f
(are integer numbers. Some)3 1115 1 4285 2304 t
( In)1 156( require to specify a \256lename in addition.)7 1747(operating systems or SCSI transport implementations may)6 2417 3 1080 2424 t
( syntax for the device is:)5 1334(this case the corect)3 972 2 1080 2544 t
10 B f
(dev=)3515 2544 w
10 I f
(devicename)3818 2544 w
10 R f
(:)4296 2544 w
10 I f
(scsibus)4324 2544 w
10 R f
(,)4621 2544 w
10 I f
(target)4646 2544 w
10 R f
(, or)1 204 1 4893 2544 t
10 B f
(dev=)5193 2544 w
10 I f
(devicename)1080 2664 w
10 R f
(:)1558 2664 w
10 I f
(target)1586 2664 w
10 R f
(,)1833 2664 w
10 I f
(lun)1858 2664 w
10 R f
( been speci\256ed on such a system referres)7 1696( the name of the device node that has)8 1552(. If)1 158 3 1994 2664 t
(to exactly one SCSI device, a shorthand in the form)9 2244 1 1080 2784 t
10 B f
(dev=)3369 2784 w
10 I f
(devicename)3621 2784 w
10 R f
(:)4099 2784 w
10 S1 f
(@)4127 2784 w
10 R f
(or)4263 2784 w
10 B f
(dev=)4390 2784 w
10 I f
(devicename)4641 2784 w
10 R f
(:)5119 2784 w
10 S1 f
(@)5147 2784 w
10 R f
(,)5247 2784 w
10 I f
(lun)5272 2784 w
10 R f
(may be used instead of)4 947 1 1080 2904 t
10 B f
(dev=)2060 2904 w
10 I f
(devicename)2300 2904 w
10 R f
(:)2778 2904 w
10 I f
(scsibus)2806 2904 w
10 R f
(,)3103 2904 w
10 I f
(target)3128 2904 w
10 R f
(,)3375 2904 w
(To make)1 372 1 1080 3192 t
10 B f
(cdrecord)1497 3192 w
10 R f
(portable to all)2 595 1 1924 3192 t
8 R f
(UNIX)2557 3192 w
10 R f
(platforms, the syntax)2 881 1 2802 3192 t
10 B f
(dev=)3728 3192 w
10 I f
(devicename)3981 3192 w
10 R f
(:)4459 3192 w
10 I f
(scsibus)4487 3192 w
10 R f
(,)4784 3192 w
10 I f
(target)4809 3192 w
10 R f
(, is pre-)2 344 1 5056 3192 t
( must not)2 409( speci\256c OS)2 521( A)1 149(ferred as is hides OS speci\256c knowledge about device names from the user.)12 3241 4 1080 3312 t
(necessarily support a way to specify a real device \256le name nor a way to specify)15 3320 1 1080 3432 t
10 I f
(scsibus)4433 3432 w
10 R f
(,)4730 3432 w
10 I f
(target)4755 3432 w
10 R f
(,)5002 3432 w
10 I f
(lun)5027 3432 w
10 R f
(.)5163 3432 w
10 I f
(Scsibus)1080 3720 w
10 R f
( the boot messages for more information or)7 1868(0 is the default SCSI bus on the machine. Watch)9 2108 2 1424 3720 t
(look into)1 378 1 1080 3840 t
10 B f
(/var/adm/messages)1502 3840 w
10 R f
( If)1 142(for more information about the SCSI con\256guration of your machine.)9 2907 2 2351 3840 t
(you have problems to \256gure out what values for)8 2074 1 1080 3960 t
10 I f
(scsibus)3199 3960 w
10 R f
(,)3496 3960 w
10 I f
(target)3521 3960 w
10 R f
(,)3768 3960 w
10 I f
(lun)3793 3960 w
10 R f
( the)1 168(should be used, try)3 815 2 3966 3960 t
10 S1 f
(\261)4995 3960 w
10 B f
(scanbus)5060 3960 w
10 R f
(option of)1 372 1 1080 4080 t
10 B f
(cdrecord)1485 4080 w
10 R f
(described below.)1 684 1 1900 4080 t
(In)1080 4248 w
10 I f
(Track At Once)2 610 1 1202 4248 t
10 R f
(mode, each)1 468 1 1851 4248 t
10 I f
(track)2359 4248 w
10 R f
(corresponds to a single \256le that contains the prepared data for that)11 2796 1 2604 4248 t
( the argument is `)4 763(track. If)1 364 2 1080 4368 t
10 S1 f
(\261)2207 4368 w
10 R f
( Only one track may be taken from)7 1499(', standard input is used for that track.)7 1629 2 2272 4368 t
10 I f
(stdin)1080 4488 w
10 R f
(.)1283 4488 w
9 B f
(GENERAL OPTIONS)1 880 1 720 4776 t
10 R f
(General options must be before any track \256le name or track option.)11 2766 1 1080 4896 t
10 S1 f
(\261)1080 5064 w
10 B f
(version)1145 5064 w
10 R f
(Print version information and exit.)4 1412 1 1440 5184 t
10 S1 f
(\261)1080 5352 w
10 B f
(v)1145 5352 w
10 R f
( used e.g. to display the progress of the)8 1639( is)1 101( This)1 245(Increment the level of general verbosity by one.)7 1975 4 1440 5352 t
(writing process.)1 646 1 1440 5472 t
10 S1 f
(\261)1080 5640 w
10 B f
(V)1145 5640 w
10 R f
( helps to debug)3 638( This)1 245(Increment the verbose level in respect of SCSI command transport by one.)11 3077 3 1440 5640 t
( in the CD-Recorder. If you get incomprehensi-)7 1987(problems during the writing process, that occur)6 1973 2 1440 5760 t
( detailed output.)2 679(ble error messages you should use this \257ag to get more)10 2342 2 1440 5880 t
10 S1 f
(\261)4535 5880 w
10 B f
(VV)4600 5880 w
10 R f
(will show data)2 615 1 4785 5880 t
( Using)1 312(buffer content in addition.)3 1088 2 1440 6000 t
10 S1 f
(\261)2879 6000 w
10 B f
(V)2944 6000 w
10 R f
(or)3055 6000 w
10 S1 f
(\261)3177 6000 w
10 B f
(VV)3242 6000 w
10 R f
(slows down the process and may be the reason)8 1975 1 3425 6000 t
( Using)1 305(for a buffer underrun.)3 887 2 1440 6120 t
10 S1 f
(\261)1080 6288 w
10 B f
(debug)1145 6288 w
10 R f
( to \256nd out problems with sector sizes and sec-)9 1981(Print additional debug messages. This may help)6 1979 2 1440 6288 t
( Using)1 305(tor types.)1 380 2 1440 6408 t
10 S1 f
(\261)2158 6408 w
10 B f
(debug)2223 6408 w
10 R f
(slows down the process and may be the reason for a buffer underrun.)12 2847 1 2518 6408 t
10 S1 f
(\261)1080 6576 w
10 B f
(dummy)1145 6576 w
10 R f
( but the laser is turned off)6 1110(The CD-Recorder will go through all steps of the recording process,)10 2850 2 1440 6696 t
( is recommended to run several tests before actually writing to a Com-)12 2932( It)1 129(during this procedure.)2 899 3 1440 6816 t
(pact Disk, if the timing and load response of the system is not known.)13 2894 1 1440 6936 t
10 S1 f
(\261)1080 7104 w
10 B f
(multi)1145 7104 w
10 R f
( multi)1 252(Allow multi session CD's to be made. This \257ag needs to be present on all sessions of a)17 3708 2 1440 7104 t
( The)1 221( to create a session that will be the last session on the media.)13 2518(session disk, except you want)4 1221 3 1440 7224 t
(J)720 7704 w
(. .)1 47 1 759 7649 t
( 1)1 1829( change: Version 1.6)3 850( Last)1 1434(org Schilling)1 528 4 759 7704 t
cleartomark
showpage
restore
%%EndPage: 1 1
%%Page: 2 2
save
mark
2 pagesetup
10 R f
( Schily)1 1267(CDRECORD \( 1 \))3 709 2 720 480 t
10 S1 f
(\302)2696 480 w
10 R f
( \( 1 \))3 164( CDRECORD)1 1557(s USER COMMANDS)2 950 3 2729 480 t
( later.)1 240(\256xation will be done in a way that allows the CD-Recorder to append additional sessions)14 3720 2 1440 960 t
( to the next program area. The so generated media)9 2072(This is done by generation a TOC with a link)9 1888 2 1440 1080 t
( If)1 136( to manufactured CD's. Use only for recording a multi session CD.)11 2809( compatible)1 514( 100%)1 270(is not)1 231 5 1440 1200 t
(this option is present, the default track type is)8 1946 1 1440 1320 t
10 B f
(CD-ROM XA mode 2)3 971 1 3427 1320 t
10 R f
(. The)1 254 1 4398 1320 t
10 I f
(Sony)4693 1320 w
10 R f
(drives have)1 472 1 4928 1320 t
(no hardware support for)3 1030 1 1440 1440 t
10 B f
(CD-ROM XA mode 2)3 995 1 2519 1440 t
10 R f
( have to specify the)4 872(. You)1 279 2 3514 1440 t
10 S1 f
(\261)4714 1440 w
10 B f
(data)4779 1440 w
10 R f
(option in)1 383 1 5017 1440 t
(order to create multi session disks on these drives.)8 2070 1 1440 1560 t
10 S1 f
(\261)1080 1728 w
10 B f
(msinfo)1145 1728 w
10 R f
(Retrieve multi session info in a form suitable for)8 2007 1 1440 1848 t
10 B f
(mkisofs-1.10)3480 1848 w
10 R f
(or later.)1 318 1 4049 1848 t
( makes only sense with a CD that contains at least one closed session and is)15 3472(This option)1 488 2 1440 2088 t
( try to get the)4 625(appendable \(not \256nally closed yet\). Some drives create error messages if you)11 3335 2 1440 2208 t
(multi session info for a disk that is not suitable for this operation.)12 2704 1 1440 2328 t
10 S1 f
(\261)1080 2496 w
10 B f
(toc)1145 2496 w
10 R f
( this option,)2 506( With)1 273(Retrieve and print out the table of content or PMA of a CD.)12 2563 3 1440 2496 t
10 B f
(cdrecord)4822 2496 w
10 R f
(will)5244 2496 w
(with CD-R drives and CD-ROM drives.)5 1639 1 1440 2616 t
10 S1 f
(\261)1080 2784 w
10 B f
(\256x)1145 2784 w
10 R f
( only be \256xated \(i.e. a TOC for a CD-Reader will be written\). This may be used,)16 3408(The disk will)2 552 2 1440 2784 t
( not \256xated. This option currently does not)7 1859(if for some reason the disk has been written but)9 2101 2 1440 2904 t
(work with TEAC drives.)3 1012 1 1440 3024 t
10 S1 f
(\261)1080 3192 w
10 B f
(no\256x)1145 3192 w
10 R f
( the tracks. This may be used to create an audio disk in)12 2452(Do not \256xate the disk after writing)6 1508 2 1440 3192 t
(steps. An un-\256xated disk can usually not be used on a non CD-writer type drive but there are)17 3960 1 1440 3312 t
(audio CD players that will be able to play such a disk.)11 2247 1 1440 3432 t
10 S1 f
(\261)1080 3600 w
10 B f
(load)1145 3600 w
10 R f
( media and exit. This only works with a tray loading mechanism but seems to be use-)16 3597(Load the)1 363 2 1440 3600 t
(ful when using the Kodak disk transporter.)6 1754 1 1440 3720 t
10 S1 f
(\261)1080 3888 w
10 B f
(eject)1145 3888 w
10 R f
( Devices \(e.g. Philips\) need to eject the medium before)9 2328( Some)1 301( the work.)2 432(Eject disk after doing)3 899 4 1440 3888 t
(creating a new disk. Doing a)5 1262 1 1440 4008 t
10 S1 f
(\261)2751 4008 w
10 R f
( a real disk would not)5 978(dummy test and immediately creating)4 1606 2 2816 4008 t
(work on these devices.)3 933 1 1440 4128 t
10 B f
(speed=)1080 4296 w
10 S1 f
(#)1376 4296 w
10 R f
( speed factor of the writing process to)7 1596(Set the)1 287 2 1440 4416 t
10 S1 f
(#)3361 4416 w
10 R f
(.)3411 4416 w
10 S1 f
(#)3507 4416 w
10 R f
(is an integer, representing a multiple of the)7 1805 1 3595 4416 t
( no)1 139( If)1 138( for CD-ROM and about 172 KB/s for CD-Audio.)8 2113( is about 150 KB/s)4 805( This)1 251(audio speed.)1 514 6 1440 4536 t
10 I f
(speed)1440 4656 w
10 R f
(option is present,)2 746 1 1722 4656 t
10 B f
(cdrecord)2523 4656 w
10 R f
( to get the speed value from the)7 1473(will try)1 322 2 2960 4656 t
10 B f
(CDR)4811 4656 w
10 S f
(_)5027 4656 w
10 B f
(SPEED)5077 4656 w
10 R f
( your drive has problems with)5 1236(environment. If)1 662 2 1440 4776 t
10 I f
(speed=2)3371 4776 w
10 R f
(or)3749 4776 w
10 I f
(speed=4)3865 4776 w
10 R f
(, you should try)3 652 1 4218 4776 t
10 I f
(speed=0)4903 4776 w
10 R f
(.)5256 4776 w
10 B f
(blank=)1080 4944 w
10 I f
(type)1383 4944 w
10 R f
(Blank a CD-RW and exit or blank a CD-RW before writing. The blanking type may be one of:)17 3919 1 1440 5064 t
( a list of possible blanking types.)6 1362(help Display)1 911 2 1440 5232 t
( the entire disk. This may take a long time.)9 1779(all Blank)1 839 2 1440 5400 t
( erasing the PMA, the TOC and the pre-)8 1680( blank the disk. This results in)6 1257(fast Minimally)1 1023 3 1440 5568 t
(gap.)2040 5688 w
( a track.)2 334(track Blank)1 839 2 1440 5856 t
( a reserved track.)3 704(unreserve Unreserve)1 1009 2 1440 6024 t
( the tail of a track.)5 766(trtail Blank)1 839 2 1440 6192 t
( last session.)2 519(unclose Unclose)1 927 2 1440 6360 t
( the last session.)3 674(session Blank)1 839 2 1440 6528 t
10 B f
(fs=)1080 6696 w
10 S1 f
(#)1209 6696 w
10 R f
(Set the \256fo \(ring buffer\) size to)6 1386 1 1440 6696 t
10 S1 f
(#)2875 6696 w
10 R f
( may use the same method as in)7 1443(. You)1 279 2 2925 6696 t
10 B f
(dd)4697 6696 w
10 R f
(\(1\),)4809 6696 w
10 B f
(sdd)5000 6696 w
10 R f
(\(1\) or)1 249 1 5151 6696 t
10 B f
(star)1440 6816 w
10 R f
( a)1 90( If)1 146( number representing the size is taken in bytes unless otherwise speci\256ed.)11 3182(\(1\). The)1 376 4 1606 6816 t
( size is multiplied by 512,)5 1109(number is followed directly by the letter `b', `k', `m', `s' of `f', the)13 2851 2 1440 6936 t
(1024, 1024)1 461 1 1440 7056 t
10 S f
(*)1901 7056 w
10 R f
( by `x' or `)4 472( the size consists of numbers separated)6 1613( If)1 135(1024, 2048 or 2352.)3 841 4 1951 7056 t
10 S f
(*)5012 7056 w
10 R f
(', multi-)1 338 1 5062 7056 t
( Thus)1 296(plication of the two numbers is performed.)6 1934 2 1440 7176 t
10 I f
(fs=10x63k)3733 7176 w
10 R f
( of)1 147(will specify a \256fo size)4 1034 2 4219 7176 t
(630 kBytes.)1 486 1 1440 7296 t
(J)720 7776 w
(. .)1 47 1 759 7721 t
( 2)1 1829( change: Version 1.6)3 850( Last)1 1434(org Schilling)1 528 4 759 7776 t
cleartomark
showpage
restore
%%EndPage: 2 2
%%Page: 3 3
save
mark
3 pagesetup
10 R f
( Schily)1 1267(CDRECORD \( 1 \))3 709 2 720 480 t
10 S1 f
(\302)2696 480 w
10 R f
( \( 1 \))3 164( CDRECORD)1 1557(s USER COMMANDS)2 950 3 2729 480 t
(The size speci\256ed by the)4 1031 1 1440 960 t
10 I f
(fs=)2507 960 w
10 R f
( the shared memory that is needed for adminis-)8 1976(argument includes)1 746 2 2678 960 t
( no)1 139( If)1 138( of memory.)2 519(tration. This is at least one page)6 1358 4 1440 1080 t
10 I f
(fs)3633 1080 w
10 R f
(= option is present,)3 809 1 3708 1080 t
10 B f
(cdrecord)4556 1080 w
10 R f
(will try to)2 423 1 4977 1080 t
(get the \256fo size value from the)6 1436 1 1440 1200 t
10 B f
(CDR)2938 1200 w
10 S f
(_)3154 1200 w
10 B f
(FIFOSIZE)3204 1200 w
10 R f
( default \256fo size is)4 886(environment. The)1 780 2 3734 1200 t
(currently 4 MB.)2 657 1 1440 1320 t
( allows to run a pipe)5 878( It)1 132( to increase buffering for the real time writing process.)9 2295(The \256fo is used)3 655 4 1440 1560 t
(from)1440 1680 w
10 B f
(mkisofs)1692 1680 w
10 R f
(directly into)1 519 1 2078 1680 t
10 B f
(cdrecord)2655 1680 w
10 R f
( from)1 251( the \256fo is active and a pipe)7 1332(. If)1 182 3 3037 1680 t
10 B f
(mkisofs)4859 1680 w
10 R f
(into)5244 1680 w
10 B f
(cdrecord)1440 1800 w
10 R f
(is used to create a CD,)5 953 1 1858 1800 t
10 B f
(cdrecord)2847 1800 w
10 R f
(will abort prior to do any modi\256cations on the disk)9 2135 1 3265 1800 t
(if)1440 1920 w
10 B f
(mkisofs)1557 1920 w
10 R f
( is between 4 and 32)5 968( recommended \256fo size)3 1027( The)1 244(dies before it starts writing.)4 1220 4 1941 1920 t
( at least equal to the size of the internal)9 1732( a rule of dumb, the \256fo size should be)9 1699(MBytes. As)1 529 3 1440 2040 t
( no more than half of the physical amount of RAM available in)12 2675(buffer of the CD-Recorder and)4 1285 2 1440 2160 t
( of)1 126( the \256fo size is big enough, the \256fo statistics will print a \256fo empty count)15 3166( If)1 141(the machine.)1 527 4 1440 2280 t
( If)1 99( is not wise to use too much space for the \256fo.)11 1936( It)1 128(zero and the \256fo min \256ll is not below 20%.)9 1797 4 1440 2400 t
( more than 8 MB to write a CD on an idle machine, your machine is either under-)17 3579(you need)1 381 2 1440 2520 t
( sun4c architecture \(e.g. a)4 1224( The)1 263(powered, has hardware problems or is mis-con\256gured.)6 2473 3 1440 2640 t
( entries for 16 MBytes per process. Using more than)9 2217(Sparcstation-2\) has only MMU page table)5 1743 2 1440 2760 t
( the operating system in this case to spend much time to con-)12 2557(14 MBytes for the \256fo may cause)6 1403 2 1440 2880 t
( tables. Newer machines from Sun do not have this MMU hardware)11 2937(stantly reload the MMU)3 1023 2 1440 3000 t
(problem. I have no information on PC-hardware re\257ecting this problem.)9 2954 1 1440 3120 t
( and observe a zero)4 809(If you have buffer underruns or similar problems)7 2017 2 1440 3360 t
10 I f
(\256fo empty count)2 658 1 4301 3360 t
10 R f
(, you have)2 433 1 4967 3360 t
(hardware problems. The \256fo size in this case is suf\256cient.)9 2371 1 1440 3480 t
10 B f
(dev=)1080 3648 w
10 I f
(target)1287 3648 w
10 R f
( typical device speci\256cation is)4 1284( A)1 150( above.)1 308(Sets the SCSI target for the CD-Recorder, see notes)8 2218 4 1440 3768 t
10 B f
(dev=)1440 3888 w
10 I f
(6,0)1647 3888 w
10 R f
( together with the numerical target speci\256cation, the)7 2185( a \256lename must be provided)5 1237(. If)1 165 3 1813 3888 t
( this case can be found in the sys-)8 1446( correct \256lename in)3 809( The)1 225(\256lename is implementation speci\256c.)3 1480 4 1440 4008 t
( a)1 81( On)1 192( operating system.)2 754(tem speci\256c manuals of the target)5 1410 4 1440 4128 t
10 I f
(FreeBSD)3914 4128 w
10 R f
(system without)1 621 1 4322 4128 t
10 I f
(CAM)4980 4128 w
10 R f
(sup-)5228 4128 w
( control device \(e.g.)3 849(port, you need to use the)5 1067 2 1440 4248 t
10 I f
(/dev/cd0.ctl)3432 4248 w
10 R f
( correct device speci\256cation in)4 1291(\). A)1 206 2 3903 4248 t
(this case may be)3 681 1 1440 4368 t
10 B f
(dev=)2154 4368 w
10 I f
(/dev/cd0.ctl:)2361 4368 w
10 S1 f
(@)2857 4368 w
10 R f
(.)2982 4368 w
( Dif-)1 210(On Linux, drives connected to a parallel port adapter are mapped to a virtual SCSI bus.)15 3750 2 1440 4608 t
(ferent adapters are mapped to different targets on this virtual SCSI bus.)11 2933 1 1440 4728 t
(If no)1 220 1 1440 4968 t
10 I f
(dev)1714 4968 w
10 R f
(option is present,)2 744 1 1906 4968 t
10 B f
(cdrecord)2704 4968 w
10 R f
(will try to get the device from the)7 1550 1 3140 4968 t
10 B f
(CDR)4745 4968 w
10 S f
(_)4961 4968 w
10 B f
(DEVICE)5011 4968 w
10 R f
(environment.)1440 5088 w
10 B f
(timeout=)1080 5256 w
10 S1 f
(#)1464 5256 w
10 R f
(Set the default SCSI command timeout value to)7 1999 1 1440 5376 t
10 S1 f
(#)3478 5376 w
10 R f
( default SCSI command timeout is the)6 1612(. The)1 252 2 3536 5376 t
( a)1 100( a SCSI command fails due to)6 1386( If)1 156(minimum timeout used for sending SCSI commands.)6 2318 4 1440 5496 t
( timeout value of the)4 863(timeout, you may try to raise the default SCSI command timeout above the)12 3097 2 1440 5616 t
( a raised command timeout, please report)6 1722( the command runs correctly with)5 1415( If)1 138(failed command.)1 685 4 1440 5736 t
( no)1 143( If)1 142( author of the program.)4 995(the better timeout value and the corresponding command to the)9 2680 4 1440 5856 t
10 I f
(timeout)1440 5976 w
10 R f
(option is present, a default timeout of 40 seconds is used.)10 2367 1 1773 5976 t
10 B f
(driver=)1080 6144 w
10 I f
(name)1403 6144 w
10 R f
( get a list of possible drivers use)7 1376( To)1 182( supplied driver name for the device.)6 1544(Allows to use a user)4 858 4 1440 6264 t
10 B f
(driver=help)1440 6384 w
10 R f
( reason for the existence of this option is to allow users to use)13 2578(. The)1 247 2 1947 6384 t
10 B f
(cdrecord)4806 6384 w
10 R f
(with)5222 6384 w
( to supported drives but not known directly by)8 1929(drives that are similar)3 895 2 1440 6504 t
10 B f
(cdrecord)4299 6504 w
10 R f
( this option)2 471(. Use)1 248 2 4681 6504 t
( used for a device, the possibility of creating corrupted)9 2314(with extreme care. If a wrong driver is)7 1646 2 1440 6624 t
( wrong driver is that the)5 1012( minimum problem related to a)5 1291( The)1 223(disks is high.)2 546 4 1440 6744 t
10 S1 f
(\261)4548 6744 w
10 B f
(speed)4613 6744 w
10 R f
(or)4888 6744 w
10 S1 f
(\261)5007 6744 w
10 B f
(dummy)5072 6744 w
10 R f
(will not work.)2 580 1 1440 6864 t
( special driver entries in the list:)6 1336(There are two)2 569 2 1440 7104 t
10 B f
(cdr)3412 7104 w
10 S f
(_)3556 7104 w
10 B f
(simul)3606 7104 w
10 R f
(and)3874 7104 w
10 B f
(dvd)4052 7104 w
10 S f
(_)4214 7104 w
10 B f
(simul)4264 7104 w
10 R f
( driver entries)2 572(. These)1 330 2 4498 7104 t
( drives that do not support the)6 1248(are designed to make timing tests at any speed or timing tests for)12 2712 2 1440 7224 t
(J)720 7704 w
(. .)1 47 1 759 7649 t
( 3)1 1829( change: Version 1.6)3 850( Last)1 1434(org Schilling)1 528 4 759 7704 t
cleartomark
showpage
restore
%%EndPage: 3 3
%%Page: 4 4
save
mark
4 pagesetup
10 R f
( Schily)1 1267(CDRECORD \( 1 \))3 709 2 720 480 t
10 S1 f
(\302)2696 480 w
10 R f
( \( 1 \))3 164( CDRECORD)1 1557(s USER COMMANDS)2 950 3 2729 480 t
10 S1 f
(\261)1440 960 w
10 B f
(dummy)1505 960 w
10 R f
( simulation drivers implement a drive with a buffer size of 1MB that can)13 3029(option. The)1 504 2 1867 960 t
(be changed via the)3 844 1 1440 1080 t
10 B f
(CDR)2342 1080 w
10 S f
(_)2558 1080 w
10 B f
(SIMUL)2608 1080 w
10 S f
(_)2936 1080 w
10 B f
(BUFSIZE)2986 1080 w
10 R f
( simultaion driver)2 775( The)1 245(environment variable.)1 908 3 3472 1080 t
( the)1 170( If)1 147(correctly simulates even a buffer underrun condition.)6 2252 3 1440 1200 t
10 S1 f
(\261)4057 1200 w
10 B f
(dummy)4122 1200 w
10 R f
(option is present, the)3 902 1 4498 1200 t
(simultaion is not aborted in case of a buffer underrun.)9 2218 1 1440 1320 t
10 S1 f
(\261)1080 1608 w
10 B f
(checkdrive)1145 1608 w
10 R f
( a known drive,)3 696( the drive is)3 541( If)1 148(Checks if a driver for the current drive is present and exit.)11 2575 4 1440 1728 t
10 B f
(cdrecord)1440 1848 w
10 R f
(uses exit code 0.)3 684 1 1855 1848 t
10 S1 f
(\261)1080 2016 w
10 B f
(prcap)1145 2016 w
10 R f
( for SCSI-3/mmc compliant drives as obtained from mode page)9 2818(Print the drive capabilities)3 1142 2 1440 2016 t
(0x2A. Values marked with)3 1133 1 1440 2136 t
10 I f
(kB)2616 2136 w
10 R f
(use 1000 bytes as kilo-byte, values marked with)7 2046 1 2764 2136 t
10 I f
(KB)4853 2136 w
10 R f
(use 1024)1 376 1 5024 2136 t
(bytes as Kilo-byte.)2 768 1 1440 2256 t
10 S1 f
(\261)1080 2424 w
10 B f
(inq)1145 2424 w
10 R f
(Do an inquiry for the drive, print the inquiry info and exit.)11 2416 1 1440 2424 t
10 S1 f
(\261)1080 2592 w
10 B f
(scanbus)1145 2592 w
10 R f
( be used)2 345(Scan all SCSI devices on all SCSI busses and print the inquiry strings. This option may)15 3615 2 1440 2712 t
( numbers printed out as labels are)6 1432( The)1 228( on a system.)3 567(to \256nd SCSI address of the CD-Recorder)6 1733 4 1440 2832 t
(computed by:)1 555 1 1440 2952 t
10 B f
(bus)2028 2952 w
10 S f
(*)2212 2952 w
10 B f
(100 + target)2 527 1 2295 2952 t
10 S1 f
(\261)1080 3120 w
10 B f
(reset)1145 3120 w
10 R f
( not on all operating)4 881(Try to reset the SCSI bus where the CD recorder is located. This works)13 3079 2 1440 3120 t
(systems.)1440 3240 w
10 S1 f
(\261)1080 3408 w
10 B f
(ignsize)1145 3408 w
10 R f
( medium. This options should be used with extreme care, it exists)11 2761(Ignore the known size of the)5 1199 2 1440 3528 t
( not needed to write disks with)6 1287( is)1 103( It)1 130(only for debugging purposes don't use it for other reasons.)9 2440 4 1440 3648 t
(more than the nominal capacity.)4 1316 1 1440 3768 t
10 B f
(defpregap)1080 3936 w
10 R f
(=)1513 3936 w
10 S1 f
(#)1569 3936 w
10 R f
( only)1 224( option currently)2 706( This)1 256(Set the default pre-gap size for all tracks except track number 1.)11 2774 4 1440 4056 t
( 2 second)2 433(makes sense with the TEAC drive when creating track-at-once disks without the)11 3527 2 1440 4176 t
(silence before each track.)3 1036 1 1440 4296 t
(This option may go away in future.)6 1455 1 1440 4416 t
10 S1 f
(\261)1080 4584 w
10 B f
(packet)1145 4584 w
10 R f
(Set Packet writing mode. This is an experimental interface.)8 2427 1 1440 4704 t
10 B f
(pktsize)1080 4872 w
10 R f
(=)1380 4872 w
10 S1 f
(#)1436 4872 w
10 R f
(Set the paket size to)4 831 1 1440 4992 t
10 S1 f
(#)2304 4992 w
10 R f
( is an experimental interface.)4 1187( This)1 244(, forces \256xed packet mode.)4 1107 3 2354 4992 t
10 S1 f
(\261)1080 5160 w
10 B f
(noclose)1145 5160 w
10 R f
( is an experimen-)3 717( This)1 245( useful only when in packet writing mode.)7 1750(Do not close the current track,)5 1248 4 1440 5280 t
(tal interface.)1 506 1 1440 5400 t
9 B f
(TRACK OPTIONS)1 760 1 720 5688 t
10 R f
(Track options may be mixed with track \256le names.)8 2092 1 1080 5808 t
10 S1 f
(\261)1080 5976 w
10 B f
(audio)1145 5976 w
10 R f
(If this \257ag is present, all subsequent tracks are written in)10 2385 1 1440 5976 t
10 B f
(CD-DA)3863 5976 w
10 R f
(\(similar to Red Book\) audio)4 1178 1 4222 5976 t
( \256le with data for this tracks should contain stereo, 16-bit digital audio with 44100)14 3444(format. The)1 516 2 1440 6096 t
( byte order should be the following: MSB left, LSB left, MSB right, LSB right,)14 3322(samples/s. The)1 638 2 1440 6216 t
( It is not possible to put the)7 1164(MSB left and so on. The track should be a multiple of 2352 bytes.)13 2796 2 1440 6336 t
( multiple of 2352)3 752(master image of an audio track on a raw disk because data will be read in)15 3208 2 1440 6456 t
(bytes during the recording process.)4 1432 1 1440 6576 t
(If a \256lename ends in)4 923 1 1440 6816 t
10 I f
(.au)2415 6816 w
10 R f
(or)2592 6816 w
10 I f
(.wav)2727 6816 w
10 R f
(the \256le is considered to be a structured audio data \256le.)10 2435 1 2965 6816 t
10 B f
(Cdrecord)1440 6936 w
10 R f
( or a Microsoft .WAV \256le and)6 1302(assumes that the \256le in this case is a Sun audio \256le)11 2206 2 1892 6936 t
( all)1 136( In)1 152( non-audio header information.)3 1275(extracts the audio data from the \256les by skipping over the)10 2397 4 1440 7056 t
( work correctly if the audio data stream does not have any)11 2622(other cases, cdrecord will only)4 1338 2 1440 7176 t
( \256les do not have an integral number of blocks \(1/75th)10 2310( many structured audio)3 957(header. Because)1 693 3 1440 7296 t
(J)720 7776 w
(. .)1 47 1 759 7721 t
( 4)1 1829( change: Version 1.6)3 850( Last)1 1434(org Schilling)1 528 4 759 7776 t
cleartomark
showpage
restore
%%EndPage: 4 4
%%Page: 5 5
save
mark
5 pagesetup
10 R f
( Schily)1 1267(CDRECORD \( 1 \))3 709 2 720 480 t
10 S1 f
(\302)2696 480 w
10 R f
( \( 1 \))3 164( CDRECORD)1 1557(s USER COMMANDS)2 950 3 2729 480 t
( it is often necessary to specify the)7 1511(second\) in length,)2 753 2 1440 960 t
10 S1 f
(\261)3748 960 w
10 B f
(pad)3813 960 w
10 R f
(option as well.)2 624 1 4019 960 t
10 B f
(cdrecord)4720 960 w
10 R f
(recog-)5146 960 w
( a .WAV \256le is stored in Intel \(little-endian\) byte order, and will)12 2923(nizes that audio data in)4 1037 2 1440 1080 t
( big-endian data.)2 710(automatically byte-swap the data if the CD recorder requires)8 2592 2 1440 1200 t
10 B f
(Cdrecord)4788 1200 w
10 R f
(will)5244 1200 w
( audio \256le that does not match the Red Book requirements of 16-bit stereo samples in)15 3561(reject any)1 399 2 1440 1320 t
(PCM coding at 44100 samples/second.)4 1590 1 1440 1440 t
(Using other structured audio data formats as input to)8 2231 1 1440 1680 t
10 B f
(cdrecord)3712 1680 w
10 R f
(will usually work if the struc-)5 1265 1 4135 1680 t
( How-)1 294( above \(raw pcm data in big-endian byte order\).)8 1975(ture of the data is the structure described)7 1691 3 1440 1800 t
(ever, if the data format includes a header, you will hear a click at the start of a track.)18 3504 1 1440 1920 t
10 S1 f
(\261)1080 2088 w
10 B f
(swab)1145 2088 w
10 R f
( Some)1 300(If this \257ag is present, audio data is assumed to be in byte-swapped \(little-endian\) order.)14 3660 2 1440 2088 t
( drives require audio data to)5 1182(types of CD-Writers e.g. Yamaha, Sony and the new SCSI-3/mmc)9 2778 2 1440 2208 t
( to be presented in the)5 944(be presented in little-endian order, while other writers require audio data)10 3016 2 1440 2328 t
( order normally used by the SCSI protocol.)7 1875(big-endian \(network\) byte)2 1088 2 1440 2448 t
10 B f
(Cdrecord)4483 2448 w
10 R f
(knows if a)2 460 1 4940 2448 t
(CD-Recorder needs audio data in big- or little-endian order, and corrects the byte order of the)15 3960 1 1440 2568 t
( only need the)3 623( You)1 250( recorder.)1 401(data stream to match the needs of the)7 1630 4 1440 2688 t
10 S1 f
(\261)4389 2688 w
10 I f
(swab)4454 2688 w
10 R f
(\257ag if your data)3 695 1 4705 2688 t
(stream is in Intel \(little-endian\) byte order.)6 1748 1 1440 2808 t
(Note that the verbose output of)5 1310 1 1440 3048 t
10 B f
(cdrecord)2789 3048 w
10 R f
( you if swapping is necessary to make the)8 1784(will show)1 406 2 3210 3048 t
( data \256t the required byte order of the recorder.)9 1953(byte order of the input)4 933 2 1440 3168 t
10 B f
(Cdrecord)4393 3168 w
10 R f
(will not show)2 563 1 4837 3168 t
(you if the)2 399 1 1440 3288 t
10 S1 f
(\261)1872 3288 w
10 I f
(swab)1937 3288 w
10 R f
(\257ag was actually present for a track.)6 1491 1 2176 3288 t
10 S1 f
(\261)1080 3456 w
10 B f
(data)1145 3456 w
10 R f
( \257ag is present, all subsequent tracks are written in)9 2199(If this)1 255 2 1440 3456 t
10 B f
(CD-ROM mode 1)2 794 1 3939 3456 t
10 R f
(\(Yellow Book\))1 622 1 4778 3456 t
( \256le with track data should contain an)7 1599( The)1 227( data is a multiple of 2048 bytes.)7 1403(format. The)1 486 4 1440 3576 t
10 B f
(ISO-)5194 3576 w
(9660)1440 3696 w
10 R f
(or)1674 3696 w
10 B f
(Rock Ridge)1 506 1 1791 3696 t
10 R f
(\256lesystem image \(see)2 878 1 2331 3696 t
10 B f
(mkisofs)3243 3696 w
10 R f
( If the track data is an)6 924(for more details\).)2 708 2 3605 3696 t
10 B f
(ufs)5272 3696 w
10 R f
( size should be set to 2 KB or more to allow CR-drives with 2 KB)15 2845(\256lesystem image, fragment)2 1115 2 1440 3816 t
(sector size to to be used for reading.)7 1497 1 1440 3936 t
10 S1 f
(\261)1440 4104 w
10 R f
(data is the default, if no other \257ag is present.)9 1850 1 1505 4104 t
10 S1 f
(\261)1080 4272 w
10 B f
(mode2)1145 4272 w
10 R f
( tracks are written in)4 856(If this \257ag is present, all subsequent)6 1483 2 1440 4392 t
10 B f
(CD-ROM mode 2)2 772 1 3813 4392 t
10 R f
(format. The data is)3 781 1 4619 4392 t
(a multiple of 2048 bytes.)4 1029 1 1440 4512 t
10 S1 f
(\261)1080 4680 w
10 B f
(xa1)1145 4680 w
10 R f
(If this \257ag is present, all subsequent tracks are written in)10 2415 1 1440 4680 t
10 B f
(CD-ROM XA mode 1)3 974 1 3896 4680 t
10 R f
(format. The)1 488 1 4912 4680 t
(data is a multiple of 2048 bytes.)6 1328 1 1440 4800 t
10 S1 f
(\261)1080 4968 w
10 B f
(xa2)1145 4968 w
10 R f
(If this \257ag is present, all subsequent tracks are written in)10 2415 1 1440 4968 t
10 B f
(CD-ROM XA mode 2)3 974 1 3896 4968 t
10 R f
(format. The)1 488 1 4912 4968 t
(data is a multiple of 2048 bytes.)6 1328 1 1440 5088 t
10 S1 f
(\261)1080 5256 w
10 B f
(cdi)1145 5256 w
10 R f
(If this \257ag is present, all subsequent tracks are written in)10 2355 1 1440 5256 t
10 B f
(CDI)3830 5256 w
10 R f
( multiple of)2 489(format. The data is a)4 863 2 4048 5256 t
(2048 bytes.)1 469 1 1440 5376 t
10 S1 f
(\261)1080 5544 w
10 B f
(isosize)1145 5544 w
10 R f
(Use the)1 317 1 1440 5664 t
10 B f
(ISO-9660)1797 5664 w
10 R f
( option is needed if you)5 1021( This)1 252( next track.)2 478(\256le system size as the size of the)7 1406 4 2243 5664 t
( a raw disk partition or on a master CD. In the \256rst case)13 2343(want to read the image of a track from)8 1617 2 1440 5784 t
(the option)1 416 1 1440 5904 t
10 S1 f
(\261)1894 5904 w
10 B f
(isosize)1959 5904 w
10 R f
( In)1 155(is needed to limit the size of the CD to the size of the ISO \256lesystem.)15 2975 2 2270 5904 t
(the second case the option)4 1084 1 1440 6024 t
10 S1 f
(\261)2558 6024 w
10 B f
(isosize)2623 6024 w
10 R f
(is needed to prevent)3 828 1 2929 6024 t
10 B f
(cdrecord)3791 6024 w
10 R f
( two run out)3 510(from reading the)2 683 2 4207 6024 t
( once mode. These two run out blocks)7 1597(blocks that are appended by each CD-recorder in track at)9 2363 2 1440 6144 t
( not)1 165( Do)1 192( buffer under run that would cause a defective copy.)9 2185(cannot be read and would cause a)6 1418 4 1440 6264 t
(use this option if)3 730 1 1440 6384 t
10 B f
(cdrecord)2215 6384 w
10 R f
(reads the track data from)4 1071 1 2642 6384 t
10 I f
(stdin)3758 6384 w
10 R f
( cannot be)2 452( option currently)2 706(. This)1 281 3 3961 6384 t
(used to determine the size of a \256le system if the multi session option is present.)15 3285 1 1440 6504 t
10 S1 f
(\261)1080 6672 w
10 B f
(pad)1145 6672 w
10 R f
( a data track, 15 sectors of zeroed data will be added to the end of this and each)18 3395(If the track is)3 565 2 1440 6672 t
( this case, the)3 586( In)1 157( track.)1 265(subsequent data)1 652 4 1440 6792 t
10 S1 f
(\261)3141 6792 w
10 B f
(pad)3206 6792 w
10 R f
(option is superseded by the)4 1152 1 3409 6792 t
10 B f
(padsize=)4602 6792 w
10 R f
(option. It)1 383 1 5017 6792 t
(will remain however as a shorthand for)6 1689 1 1440 6912 t
10 B f
(padsize=15s.)3175 6912 w
10 R f
(If the)1 235 1 3792 6912 t
10 S1 f
(\261)4074 6912 w
10 I f
(pad)4139 6912 w
10 R f
(option refers to an audio)4 1064 1 4336 6912 t
(track,)1440 7032 w
10 B f
(cdrecord)1700 7032 w
10 R f
( data padding)2 558(will pad the audio data to be a multiple of 2352 bytes. The audio)13 2724 2 2118 7032 t
(is done with binary zeroes which is equal to absolute silence.)10 2518 1 1440 7152 t
(J)720 7680 w
(. .)1 47 1 759 7625 t
( 5)1 1829( change: Version 1.6)3 850( Last)1 1434(org Schilling)1 528 4 759 7680 t
cleartomark
showpage
restore
%%EndPage: 5 5
%%Page: 6 6
save
mark
6 pagesetup
10 R f
( Schily)1 1267(CDRECORD \( 1 \))3 709 2 720 480 t
10 S1 f
(\302)2696 480 w
10 R f
( \( 1 \))3 164( CDRECORD)1 1557(s USER COMMANDS)2 950 3 2729 480 t
10 B f
(padsize=)1080 960 w
10 S1 f
(#)1454 960 w
10 R f
( the next track to)4 771(Set the amount of data to be appended as padding to)10 2326 2 1440 1080 t
10 S1 f
(#)4587 1080 w
10 R f
( to the)2 300(. Opposed)1 463 2 4637 1080 t
(behavior of the)2 630 1 1440 1200 t
10 S1 f
(\261)2107 1200 w
10 B f
(pad)2172 1200 w
10 R f
( See)1 214(option, this value is reset to zero for each new track.)10 2204 2 2371 1200 t
10 B f
(fs)4826 1200 w
10 R f
(= option for)2 502 1 4898 1200 t
( not able to read the last sectors of a)9 1586( this option if your CD-drive is)6 1335( Use)1 229(possible arguments.)1 810 4 1440 1320 t
(track or if you want to be able to read the CD on a)13 2121 1 1440 1440 t
10 B f
(Linux)3595 1440 w
10 R f
(system with the ISO-9660 \256lesystem)4 1514 1 3886 1440 t
( an empty \256le is used for track data, this option may be used to create a disk)17 3182( If)1 133( bug.)1 209(read ahead)1 436 4 1440 1560 t
(that is entirely made of padding.)5 1333 1 1440 1680 t
10 S1 f
(\261)1080 1848 w
10 B f
(nopad)1145 1848 w
10 R f
(Do not pad the following tracks)5 1308 1 1440 1968 t
10 S1 f
(\261)2781 1968 w
10 R f
(the default.)1 457 1 2879 1968 t
10 B f
(pregap)1080 2136 w
10 R f
(=)1380 2136 w
10 S1 f
(#)1436 2136 w
10 R f
( with the TEAC)3 666( option currently only makes sense)5 1435( This)1 245( size for the next track.)5 959( pre-gap)1 371(Set the)1 284 6 1440 2256 t
(drive when creating track-at-once disks without the 2 second silence before each track.)12 3561 1 1440 2376 t
(This option may go away in future.)6 1455 1 1440 2496 t
10 S1 f
(\261)1080 2664 w
10 B f
(preemp)1145 2664 w
10 R f
( TOC entries for subsequent audio tracks will indicate that the audio)11 2914(If this \257ag is present, all)5 1046 2 1440 2784 t
( however is not modi\256ed during)5 1330( data,)1 227( The)1 224(data has been sampled with 50/15 5sec preemphasis.)7 2179 4 1440 2904 t
(the process of transferring from \256le to disk. This option has no effect on data tracks.)15 3478 1 1440 3024 t
10 S1 f
(\261)1080 3192 w
10 B f
(nopreemp)1145 3192 w
10 R f
( TOC entries for subsequent audio tracks will indicate that the audio)11 2914(If this \257ag is present, all)5 1046 2 1440 3312 t
(data has been mastered with linear data)6 1616 1 1440 3432 t
10 S1 f
(\261)3089 3432 w
10 R f
(this is the default.)3 735 1 3187 3432 t
10 B f
(tsize=)1080 3600 w
10 S1 f
(#)1325 3600 w
10 R f
(If the master image for the next track has been stored on a raw disk, use this option to specify)19 3960 1 1440 3600 t
( in a regular \256le,)4 709(the valid amount of data on this disk. If the image of the next track is stored)16 3251 2 1440 3720 t
( the track contains an ISO)5 1104( If)1 138( this track.)2 447(the size of that \256le is taken to determine the length of)11 2271 4 1440 3840 t
(9660 \256lesystem image use the)4 1237 1 1440 3960 t
10 S1 f
(\261)2710 3960 w
10 I f
(isosize)2775 3960 w
10 R f
(option to determine the length of that \256lesystem image.)8 2277 1 3075 3960 t
( use the TEAC program-)4 1023(In Disk at Once mode \(not yet implemented\) and with some drives that)12 2937 2 1440 4080 t
(ming interface, even in Track at Once mode,)7 1914 1 1440 4200 t
10 B f
(cdrecord)3398 4200 w
10 R f
(needs to know the size of each track)7 1576 1 3824 4200 t
( now checks this and aborts before starting to write.)9 2180( Cdrecord)1 442( the disk.)2 390(before starting to write)3 948 4 1440 4320 t
(If this happens you will need to run)7 1516 1 1440 4440 t
10 B f
(mkisofs -print-size)1 805 1 2995 4440 t
10 R f
(before and use the output as an argu-)7 1562 1 3838 4440 t
(ment to the)2 466 1 1440 4560 t
10 B f
(tsize)1939 4560 w
10 R f
(= option of)2 461 1 2127 4560 t
10 B f
(cdrecord)2621 4560 w
10 R f
(.)3003 4560 w
(See)1440 4680 w
10 B f
(fs)1617 4680 w
10 R f
(= option for possible arguments.)4 1329 1 1689 4680 t
9 B f
(EXAMPLES)720 4968 w
10 R f
( the CD-Recorder is connected to the primary SCSI bus)9 2339(For all examples below, it will be assumed that)8 1981 2 1080 5088 t
(of the machine. The SCSI target id is set to 2.)10 1901 1 1080 5208 t
(To record a pure CD-ROM at double speed, using data from the \256le)12 2805 1 1080 5376 t
10 I f
(cdimage.raw)3918 5376 w
10 R f
(:)4445 5376 w
(cdrecord)1212 5544 w
10 S1 f
(\261)1593 5544 w
10 R f
(v speed=2 dev=2,0 cdimage.raw)3 1319 1 1658 5544 t
(To create an image for a ISO 9660 \256lesystem with Rock Ridge extensions:)12 3087 1 1080 5712 t
(mkisofs)1212 5880 w
10 S1 f
(\261)1562 5880 w
10 R f
(R)1627 5880 w
10 S1 f
(\261)1727 5880 w
10 R f
(o cdimage.raw /home/joerg/master/tree)2 1582 1 1792 5880 t
(To check the resulting \256le before writing to CD on Solaris:)10 2439 1 1080 6048 t
(mount)1212 6216 w
10 S1 f
(\261)1501 6216 w
10 R f
(r)1566 6216 w
10 S1 f
(\261)1632 6216 w
10 R f
(F fbk)1 222 1 1697 6216 t
10 S1 f
(\261)1952 6216 w
10 R f
(o type=hsfs /dev/fbk0:cdimage.raw /mnt)3 1645 1 2017 6216 t
(On Linux:)1 422 1 1080 6384 t
(mount cdimage.raw)1 801 1 1212 6552 t
10 S1 f
(\261)2046 6552 w
10 R f
(r)2111 6552 w
10 S1 f
(\261)2177 6552 w
10 R f
(t iso9660)1 378 1 2242 6552 t
10 S1 f
(\261)2653 6552 w
10 R f
(o loop /mnt)2 478 1 2718 6552 t
(Go on with:)2 494 1 1080 6720 t
(ls)1212 6840 w
10 S1 f
(\261)1312 6840 w
10 R f
(lR /mnt)1 312 1 1377 6840 t
(umount /mnt)1 523 1 1212 6960 t
(J)720 7680 w
(. .)1 47 1 759 7625 t
( 6)1 1829( change: Version 1.6)3 850( Last)1 1434(org Schilling)1 528 4 759 7680 t
cleartomark
showpage
restore
%%EndPage: 6 6
%%Page: 7 7
save
mark
7 pagesetup
10 R f
( Schily)1 1267(CDRECORD \( 1 \))3 709 2 720 480 t
10 S1 f
(\302)2696 480 w
10 R f
( \( 1 \))3 164( CDRECORD)1 1557(s USER COMMANDS)2 950 3 2729 480 t
( the system is suf\256cient and the structure of the \256lesystem is not too complex,)14 3373(If the overall speed of)4 947 2 1080 960 t
(cdrecord will run without creating an image of the ISO 9660 \256lesystem. Simply run the pipeline:)15 3989 1 1080 1080 t
(mkisofs)1212 1248 w
10 S1 f
(\261)1562 1248 w
10 R f
(R /master/tree)1 571 1 1627 1248 t
10 S f
(\372)2231 1248 w
10 R f
(cdrecord)2314 1248 w
10 S1 f
(\261)2695 1248 w
10 R f
(v fs=6m speed=2 dev=2,0 -)4 1129 1 2760 1248 t
( the default \256fo size is 4)6 1014( As)1 178( size for running this pipeline is 4 MBytes.)8 1780(The recommended minimum \256fo)3 1348 4 1080 1416 t
(MB, the)1 348 1 1080 1536 t
10 B f
(fs=)1473 1536 w
10 R f
( your system is)3 660( If)1 143(option needs only be present if you want to use a different \256fo size.)13 2950 3 1647 1536 t
( raise the priority of)4 853( To)1 184( real time class too.)4 834(loaded, you should run mkisofs in the)6 1592 4 1080 1656 t
10 B f
(mkisofs)4583 1656 w
10 R f
(replace the)1 449 1 4951 1656 t
(command)1080 1776 w
(mkisofs)1212 1944 w
10 S1 f
(\261)1562 1944 w
10 R f
(R /master/tree)1 571 1 1627 1944 t
(by)1080 2064 w
(priocntl)1212 2184 w
10 S1 f
(\261)1556 2184 w
10 R f
(e)1621 2184 w
10 S1 f
(\261)1698 2184 w
10 R f
(c RT)1 205 1 1763 2184 t
10 S1 f
(\261)2001 2184 w
10 R f
(p 59 mkisofs)2 533 1 2066 2184 t
10 S1 f
(\261)2632 2184 w
10 R f
(R /master/tree)1 571 1 2697 2184 t
(on Solaris and by)3 721 1 1080 2424 t
(nice --18 mkisofs)2 715 1 1212 2664 t
10 S1 f
(\261)1960 2664 w
10 R f
(R /master/tree)1 571 1 2025 2664 t
(on systems that don't have)4 1098 1 1080 2904 t
10 B f
(UNIX International)1 855 1 2211 2904 t
10 R f
(compliant realtime scheduling.)2 1251 1 3099 2904 t
( on Solaris, you should run mkisofs at no more than priority 58. On other)14 3145(Cdrecord runs at priority 59)4 1175 2 1080 3072 t
(systems, you should run mkisofs at no less than nice --18.)10 2390 1 1080 3192 t
( system image on disk has been tested on a Sparcstation-2 with a)12 2898(Creating a CD-ROM without \256le)4 1422 2 1080 3360 t
( faster machine)2 637( A)1 144( up to quad speed when the machine was not loaded.)10 2239(Yamaha CDR-400. It did work)4 1300 4 1080 3480 t
(may be able to handle quad speed also in the loaded case.)11 2383 1 1080 3600 t
(To record a pure CD-DA \(audio\) at single speed, with each track contained in a \256le named)16 4320 1 1080 3768 t
10 I f
(track01.cdaudio)1080 3888 w
10 R f
(,)1740 3888 w
10 I f
(track02.cdaudio)1798 3888 w
10 R f
(, etc:)1 202 1 2458 3888 t
(cdrecord)1212 4056 w
10 S1 f
(\261)1593 4056 w
10 R f
(v speed=1 dev=2,0 -audio track)4 1294 1 1658 4056 t
10 S f
(*)2952 4056 w
10 R f
(.cdaudio)3002 4056 w
(To check if it will be ok to use double speed for the example above. Use the dummy write option:)19 4058 1 1080 4224 t
(cdrecord)1212 4392 w
10 S1 f
(\261)1593 4392 w
10 R f
(v)1658 4392 w
10 S1 f
(\261)1741 4392 w
10 R f
(dummy speed=2 dev=2,0)2 1030 1 1806 4392 t
10 S1 f
(\261)2869 4392 w
10 R f
(audio track)1 454 1 2934 4392 t
10 S f
(*)3388 4392 w
10 R f
(.cdaudio)3438 4392 w
( from)1 229(To record a mixed-mode CD with an ISO 9660 \256lesystem)9 2398 2 1080 4560 t
10 I f
(cdimage.raw)3742 4560 w
10 R f
(on the \256rst track, the other)5 1104 1 4296 4560 t
(tracks being audio tracks from the \256les)6 1601 1 1080 4680 t
10 I f
(track01.cdaudio)2714 4680 w
10 R f
(,)3374 4680 w
10 I f
(track02.cdaudio)3432 4680 w
10 R f
(, etc:)1 202 1 4092 4680 t
(cdrecord)1212 4848 w
10 S1 f
(\261)1593 4848 w
10 R f
(v)1658 4848 w
10 S1 f
(\261)1741 4848 w
10 R f
(dummy dev=2,0 cdimage.raw)2 1209 1 1806 4848 t
10 S1 f
(\261)3048 4848 w
10 R f
(audio track)1 454 1 3113 4848 t
10 S f
(*)3567 4848 w
10 R f
(.cdaudio)3617 4848 w
(To handle drives that need to know the size of a track before starting to write, \256rst run)17 3574 1 1080 5016 t
(mkisofs -R -q -print-size /master/tree)4 1513 1 1212 5184 t
(and then run)2 515 1 1080 5352 t
(mkisofs -R /master/tree)2 954 1 1212 5520 t
10 S f
(\372)2199 5520 w
10 R f
(cdrecord speed=2 dev=2,0 tsize=XXXs -)4 1665 1 2282 5520 t
(where)1080 5688 w
10 I f
(XXX)1356 5688 w
10 R f
(is replaced by the output of the previous run of mkisofs.)10 2319 1 1572 5688 t
9 B f
(SEE ALSO)1 460 1 720 5976 t
10 B f
(mkisofs)1080 6096 w
10 R f
(\(1\),)1408 6096 w
10 B f
(scg)1582 6096 w
10 R f
(\(7\),)1715 6096 w
10 B f
(fbk)1889 6096 w
10 R f
(\(7\).)2034 6096 w
9 B f
(NOTES)720 6384 w
10 R f
(The current version of)3 946 1 1080 6504 t
10 B f
(cdrecord)2070 6504 w
10 R f
( record)1 299(will only)1 378 2 2496 6504 t
10 B f
(track at once)2 594 1 3218 6504 t
10 R f
( the so made disks contain)5 1152(Discs. If)1 391 2 3857 6504 t
( will)1 198( You)1 247(more than one track, they are not suitable for direct mass production by CD manufacturers.)14 3875 3 1080 6624 t
(need the)1 344 1 1080 6744 t
10 B f
(disk at once)2 524 1 1458 6744 t
10 R f
( the disks made with)4 858( Nevertheless)1 582(option to record such disks.)4 1138 3 2016 6744 t
10 B f
(cdrecord)4628 6744 w
10 R f
(will nor-)1 356 1 5044 6744 t
( old audio CD players however may produce a two second click)11 2696(mally be read in all CD players. Some)7 1624 2 1080 6864 t
(between two audio tracks.)3 1066 1 1080 6984 t
(J)720 7680 w
(. .)1 47 1 759 7625 t
( 7)1 1829( change: Version 1.6)3 850( Last)1 1434(org Schilling)1 528 4 759 7680 t
cleartomark
showpage
restore
%%EndPage: 7 7
%%Page: 8 8
save
mark
8 pagesetup
10 R f
( Schily)1 1267(CDRECORD \( 1 \))3 709 2 720 480 t
10 S1 f
(\302)2696 480 w
10 R f
( \( 1 \))3 164( CDRECORD)1 1557(s USER COMMANDS)2 950 3 2729 480 t
( If you write smaller tracks, the CD-Recorder)7 1931(The minimal size of a track is 4 seconds or 300 sectors.)11 2389 2 1080 960 t
(will add dummy blocks. This is not an error, even though the SCSI-error message looks this way.)16 4022 1 1080 1080 t
10 B f
(Cdrecord)1080 1248 w
10 R f
( a)1 88(has been tested on an upgraded Philips CDD-521 recorder at single and double speed on)14 3779 2 1533 1248 t
(SparcStation 20/502 with no problems, slower computer systems should work also. The newer)12 4320 1 1080 1368 t
( work also. The Plasmon)4 1035(Philips/HP/Plasmon/Grundig drives as well as Yamaha CDR-100 and CDR-102)8 3285 2 1080 1488 t
( Philips CDD-521 that has not been upgraded will)8 2079( A)1 141(RF-4100 work, but has not tested in multi session.)8 2100 3 1080 1608 t
( sony)1 224( The)1 223( CDU-924 has been tested, but does not support XA-mode2 in hardware.)11 3019( Sony)1 240( The)1 222(not work.)1 392 6 1080 1728 t
( Ricoh RO-1420C works, but some people)6 1792( The)1 228(therefore cannot create conforming multi session disks.)6 2300 3 1080 1848 t
(seem to have problems to use them with speed=2, try speed=0 in this case.)13 3082 1 1080 1968 t
( are supported in single and multi-)6 1473(The Yamaha CDR-400 and all new SCSI-3/mmc conforming drives)8 2847 2 1080 2136 t
(session.)1080 2256 w
(You should run several tests in all supported speeds of your drive with the)13 3083 1 1080 2424 t
10 S1 f
(\261)4197 2424 w
10 B f
(dummy)4262 2424 w
10 R f
( on if)2 231(option turned)1 545 2 4624 2424 t
(you are using)2 590 1 1080 2544 t
10 B f
(cdrecord)1720 2544 w
10 R f
(on an unknown system. Writing a CD is a realtime process.)10 2625 1 2152 2544 t
10 B f
(NFS)4827 2544 w
10 R f
(will not)1 334 1 5066 2544 t
( want to use)3 525( you)1 189( If)1 138(always deliver constantly the needed data rates.)6 1982 4 1080 2664 t
10 B f
(cdrecord)3954 2664 w
10 R f
(with CD-images that are)3 1024 1 4376 2664 t
(located on a)2 518 1 1080 2784 t
10 B f
(NFS)1641 2784 w
10 R f
( used)1 225( I)1 108( enough.)1 361(mounted \256lesystem, be sure that the \256fo size is big)9 2189 4 1873 2784 t
10 B f
(cdrecord)4798 2784 w
10 R f
(with)5222 2784 w
(with medium load on a SS20/502 and even at quad speed on a Sparcstation-2 which was heavily loaded,)17 4320 1 1080 2904 t
( you want)2 410( If)1 132( the system as lightly loaded as possible while writing a CD.)11 2504(but it is recommended to leave)5 1274 4 1080 3024 t
(to make sure that buffer underrungs are not caused by your source disk, you may use the command)17 4089 1 1080 3144 t
10 B f
(cdrecord -dummy dev=2,0 padsize=600m /dev/null)4 2188 1 1212 3312 t
10 R f
(to create a disk that is entirely made of dummy data.)10 2174 1 1080 3480 t
10 B f
(Cdrecord)3320 3480 w
10 R f
( get access to the)4 712(needs to run as root to)5 925 2 3763 3480 t
10 B f
(/dev/scg?)1080 3600 w
10 R f
(device nodes and to be able to lock itself into memory.)10 2269 1 1502 3600 t
(If you don't want to allow users to become root on your system,)12 2705 1 1080 3768 t
10 B f
(cdrecord)3822 3768 w
10 R f
( suid)1 205(may safely be installed)3 954 2 4241 3768 t
( privileges to use)3 707(root. This allows all users or a group of users with no root)12 2437 2 1080 3888 t
10 B f
(cdrecord. Cdrecord)1 851 1 4258 3888 t
10 R f
(in this)1 257 1 5143 3888 t
( give all user access to)5 955( To)1 181( to read the speci\256ed \256les.)5 1103(case checks, if the real user would have been able)9 2081 4 1080 4008 t
(use)1080 4128 w
10 B f
(cdrecord,)1246 4128 w
10 R f
(enter:)1686 4128 w
(chmod 4711 /usr/local/bin/cdrecord)2 1442 1 1440 4296 t
(To give a restricted group of users access to cdrecord enter:)10 2456 1 1080 4464 t
(chmod 4710 /usr/local/bin/cdrecord)2 1442 1 1440 4632 t
(chgrp cdburners /usr/local/bin/cdrecord)2 1590 1 1440 4752 t
(and add a group)3 664 1 1080 4920 t
10 I f
(cdburners)1777 4920 w
10 R f
(on your system.)2 652 1 2215 4920 t
( to the)2 284(Never give write permissions for non root users)7 2017 2 1080 5088 t
10 I f
(/dev/scg?)3423 5088 w
10 R f
(devices unless you would allow any-)5 1558 1 3842 5088 t
(body to read/write/format all your disks.)5 1655 1 1080 5208 t
( not connect old drives that do not support disconnect/reconnect to either the SCSI bus that)15 3843(You should)1 477 2 1080 5376 t
(is connected to the CD-Recorder or the source disk.)8 2129 1 1080 5496 t
(A Compact Disc can have no more than 99 tracks.)9 2079 1 1080 5664 t
( on track 1 otherwise you)5 1132(When creating a disc with both audio and data tracks, the data should be)13 3188 2 1080 5832 t
(should create a CDplus disk which is a multi session disk with the \256rst session containing the audio)17 4320 1 1080 5952 t
(tracks and the following session containing the data track.)8 2380 1 1080 6072 t
( single data track, or need special software to)8 1918(Many operating systems are not able to read more than a)10 2402 2 1080 6240 t
(do so.)1 247 1 1080 6360 t
(More information on the SCSI command set of a HP CD-Recorder can be found at:)14 3446 1 1080 6528 t
(http://www.hp.com/isgsupport/cdr/index.html)1440 6696 w
( have more information or SCSI command manuals for currently unsupported CD-Recorders)11 4049(If you)1 271 2 1080 6864 t
(please contact the author.)3 1038 1 1080 6984 t
(J)720 7680 w
(. .)1 47 1 759 7625 t
( 8)1 1829( change: Version 1.6)3 850( Last)1 1434(org Schilling)1 528 4 759 7680 t
cleartomark
showpage
restore
%%EndPage: 8 8
%%Page: 9 9
save
mark
9 pagesetup
10 R f
( Schily)1 1267(CDRECORD \( 1 \))3 709 2 720 480 t
10 S1 f
(\302)2696 480 w
10 R f
( \( 1 \))3 164( CDRECORD)1 1557(s USER COMMANDS)2 950 3 2729 480 t
( CDD 521 CD-Recorder \(even in the upgraded version\) has several \256rmware bugs. Some of)14 3849(The Philips)1 471 2 1080 960 t
(them will force you to power cycle the device or to reboot the machine.)13 2959 1 1080 1080 t
(When using)1 489 1 1080 1248 t
10 B f
(cdrecord)1603 1248 w
10 R f
(with the broken)2 645 1 2019 1248 t
10 B f
(Linux SCSI generic driver.)3 1183 1 2698 1248 t
10 R f
(You should note that)3 863 1 3915 1248 t
10 B f
(cdrecord)4812 1248 w
10 R f
(uses)5228 1248 w
( the sg driver on)4 709( Unfortunately,)1 658( scg driver.)2 476(a hack, that tries to emulate the functionality of the)9 2180 4 1080 1368 t
10 B f
(Linux)5143 1368 w
10 R f
(has several severe bugs:)3 985 1 1080 1488 t
( cannot see if a SCSI command could not be sent at all.)12 2302(\267 It)1 421 2 1080 1656 t
( cannot get the SCSI status byte.)6 1399(\267 It)1 421 2 1080 1824 t
10 B f
(Cdrecord)2942 1824 w
10 R f
( report failing SCSI com-)4 1088(for that reason cannot)3 918 2 3394 1824 t
(mands in some situations.)3 1058 1 1440 1944 t
( cannot get real DMA count of transfer.)7 1635(\267 It)1 421 2 1080 2112 t
10 B f
(Cdrecord)3170 2112 w
10 R f
(cannot tell you if there is an DMA residual)8 1786 1 3614 2112 t
(count.)1440 2232 w
( valid in auto sense data.)5 1092( cannot get number of bytes)5 1217(\267 It)1 421 3 1080 2400 t
10 B f
(Cdrecord)3890 2400 w
10 R f
(cannot tell you if device)4 1053 1 4347 2400 t
(transfers no sense data at all.)5 1187 1 1440 2520 t
( fetches to few data in auto request sense \(CCS/SCSI-2/SCSI-3 needs)10 2855(\267 It)1 421 2 1080 2688 t
10 S1 f
(>)4389 2688 w
10 R f
(= 18\).)1 247 1 4445 2688 t
( the CD-Recorder. For)3 937(The \256fo percent output is computed just after a block of data has been written to)15 3383 2 1080 2856 t
(this reason, there will never be 100% \256fo \256ll, while the \256fo is in streaming mode.)15 3373 1 1080 2976 t
9 B f
(DIAGNOSTICS)720 3264 w
10 R f
(You have 9 seconds to type)5 1141 1 1080 3384 t
10 S1 f
(\303)2254 3384 w
10 R f
(C to abort)2 416 1 2287 3384 t
10 B f
(cdrecord)2736 3384 w
10 R f
(after you see the message:)4 1079 1 3151 3384 t
(Starting to write CD at speed %d in %s mode for %s session.)12 2541 1 1080 3552 t
(A typical error message for a SCSI command looks like:)9 2333 1 1080 3720 t
(cdrecord: I/O error. test unit ready: scsi sendcmd: no error)9 2394 1 1440 3960 t
( 20 00 00 00 00)5 665(CDB: 00)1 400 2 1440 4080 t
(status: 0x2 \(CHECK CONDITION\))3 1464 1 1440 4200 t
(Sense Bytes: 70 00 05 00 00 00 00 0A 00 00 00 00 25 00 00 00 00 00)19 2938 1 1440 4320 t
(Sense Key: 0x5 Illegal Request, Segment 0)6 1777 1 1440 4440 t
(Sense Code: 0x25 Qual 0x00 \(logical unit not supported\) Fru 0x0)10 2701 1 1440 4560 t
(Sense \257ags: Blk 0 \(not valid\))5 1204 1 1440 4680 t
( text after the \256rst colon gives)6 1265( The)1 225( of the command.)3 735(The \256rst line gives information about the transport)7 2095 4 1080 4920 t
( from the view of the kernel. It usually is:)9 1740(the error text for the system call)6 1335 2 1080 5040 t
10 B f
(I/O error)1 405 1 4222 5040 t
10 R f
(unless other prob-)2 739 1 4661 5040 t
( a short description for the SCSI command that fails. The rest of)12 2753(lems happen. The next words contain)5 1567 2 1080 5160 t
( if there were any problems for the transport of the command over the SCSI bus.)15 3361(the line tells you)3 697 2 1080 5280 t
10 B f
(fatal)5206 5280 w
(error)1080 5400 w
10 R f
( was not possible to transport the command \(i.e. no device present at the requested)14 3513(means that it)2 541 2 1346 5400 t
(SCSI address\).)1 602 1 1080 5520 t
(The second line prints the SCSI command descriptor block for the failed command.)12 3439 1 1080 5688 t
( transport of)2 522(The third line gives information on the SCSI status code returned by the command, if the)15 3798 2 1080 5856 t
(the command succeeds. This is error information from the SCSI device.)10 2948 1 1080 5976 t
(The fourth line is a hex dump of the auto request sense information for the command.)15 3537 1 1080 6144 t
( is only)2 313(The \256fth line is the error text for the sense key if available, followed by the segment number that)18 4007 2 1080 6312 t
(valid if the command was a)5 1191 1 1080 6432 t
10 I f
(copy)2314 6432 w
10 R f
( error message is not directly related to the current)9 2162(command. If the)2 693 2 2545 6432 t
(command, the text)2 757 1 1080 6552 t
10 I f
(deferred error)1 582 1 1870 6552 t
10 R f
(is appended.)1 507 1 2485 6552 t
( the type of the)4 651( If)1 137( the sense quali\256er if available.)5 1307(The sixth line is the error text for the sense code and)11 2225 4 1080 6720 t
(device is known, the sense data is decoded from tables in)10 2402 1 1080 6840 t
10 I f
(scsierrs.c)3519 6840 w
10 R f
( by the error)3 523( text is followed)3 683(. The)1 250 3 3944 6840 t
(value for a \256eld replaceable unit.)5 1353 1 1080 6960 t
(J)720 7680 w
(. .)1 47 1 759 7625 t
( 9)1 1829( change: Version 1.6)3 850( Last)1 1434(org Schilling)1 528 4 759 7680 t
cleartomark
showpage
restore
%%EndPage: 9 9
%%Page: 10 10
save
mark
10 pagesetup
10 R f
( Schily)1 1267(CDRECORD \( 1 \))3 709 2 720 480 t
10 S1 f
(\302)2696 480 w
10 R f
( \( 1 \))3 164( CDRECORD)1 1557(s USER COMMANDS)2 950 3 2729 480 t
( to the failed command and text for several error)9 2030(The seventh line prints the block number that is related)9 2290 2 1080 960 t
(\257ags. The block number may not be valid.)7 1746 1 1080 1080 t
(The following message is not an error:)6 1590 1 1080 1248 t
(Track 01: Total bytes read/written: 2048/2048 \(1 sectors\).)7 2369 1 1440 1368 t
(cdrecord: I/O error. \257ush cache: scsi sendcmd: no error)8 2266 1 1440 1488 t
( 00 00 00 00 00 00 00 00 00)9 1197(CDB: 35)1 400 2 1440 1608 t
(status: 0x2 \(CHECK CONDITION\))3 1464 1 1440 1728 t
(Sense Bytes: F0 00 05 80 00 00 27 0A 00 00 00 00 B5 00 00 00 00 00)19 2961 1 1440 1848 t
(Sense Key: 0x5 Illegal Request, Segment 0)6 1777 1 1440 1968 t
(Sense Code: 0xB5 Qual 0x00 \(dummy data blocks added\) Fru 0x0)10 2739 1 1440 2088 t
(Sense \257ags: Blk -2147483609 \(valid\))4 1526 1 1440 2208 t
(It simply noti\256es, that a track that is smaller than the minimum size has been expanded to 300 sectors.)18 4224 1 1080 2448 t
9 B f
(BUGS)720 2616 w
10 B f
(Cdrecord)1080 2736 w
10 R f
(has even more options than)4 1125 1 1523 2736 t
10 B f
(ls)2681 2736 w
10 R f
(.)2748 2736 w
10 B f
(Cdrecord)1080 2904 w
10 R f
( you don't abort the com-)5 1108( If)1 142( disk.)1 235(currently only warns if the input data will not \256t on the)11 2383 4 1532 2904 t
(mand you will get unpredictable results.)5 1644 1 1080 3024 t
(There should be an option to write index numbers for audio tracks.)11 2756 1 1080 3192 t
(There should be a recover option to make disks usable, that have been written during a power failure.)17 4180 1 1080 3360 t
9 B f
(CREDITS)720 3648 w
10 R f
( \(Bill)1 443(Bill Swartz)1 461 2 1080 3768 t
10 S f
(_)1984 3768 w
10 R f
(Swartz)2034 3768 w
10 S1 f
(@)2311 3768 w
10 R f
(twolf.com\))2403 3768 w
(For helping me with the TEAC driver support)7 1891 1 1830 3888 t
( \(aaron.d.newsome)1 770(Aaron Newsome)1 681 2 1080 4056 t
10 S1 f
(@)2531 4056 w
10 R f
(wdc.com\))2623 4056 w
(For letting me develop Sony support on his drive)8 2025 1 1830 4176 t
( \(eric)1 265(Eric Youngdale)1 637 2 1080 4344 t
10 S1 f
(@)1982 4344 w
10 R f
(andante.jic.com\))2074 4344 w
(For supplying mkisofs)2 917 1 1830 4464 t
( \(gadio)1 454(Gadi Oxman)1 521 2 1080 4632 t
10 S1 f
(@)2055 4632 w
10 R f
(netvision.net.il\))2147 4632 w
(For tips on the ATAPI standard)5 1303 1 1830 4752 t
( \(\256nnag)1 537(Finn Arne Gangstad)2 826 2 1080 4920 t
10 S1 f
(@)2443 4920 w
10 R f
(guardian.no\))2535 4920 w
(For the \256rst FIFO implementation.)4 1419 1 1830 5040 t
( \(dplatt)1 554(Dave Platt)1 427 2 1080 5208 t
10 S1 f
(@)2061 5208 w
10 R f
(feghoot.ml.org\))2153 5208 w
( implementation of CD-)3 1003(For creating the experimental packet writing support, the \256rst)8 2567 2 1830 5328 t
( the \256rst .wav \256le decoder and many nice discussions on)10 2610(RW blanking support,)2 960 2 1830 5448 t
(cdrecord.)1830 5568 w
(Chris P. Ross)2 559 1 1080 5736 t
10 S1 f
(")1639 5736 w
10 R f
(\(cross)1713 5736 w
10 S1 f
(@)1951 5736 w
10 R f
(eng.us.uu.net\))2043 5736 w
(For the \256rst implementation os a BSDI SCSI rtansport.)8 2262 1 1830 5856 t
( \(grant)1 337(Grant R. Guenther)2 756 2 1080 6024 t
10 S1 f
(@)2173 6024 w
10 R f
(torque.net\))2265 6024 w
(For creating the \256rst parallel port transport implementation for Linux.)9 2858 1 1830 6144 t
9 B f
(MAILING LISTS)1 700 1 720 6432 t
10 R f
( to actively take part on the development of cdrecord, you may join the cdwriting mailing)15 3828(If you want)2 492 2 1080 6552 t
(list by sending mail to:)4 950 1 1080 6672 t
(cdwrite-request)1440 6912 w
10 S1 f
(@)2060 6912 w
10 R f
(lists.debian.org)2152 6912 w
(and include the word)3 864 1 1080 7152 t
10 I f
(subscribe)1977 7152 w
10 R f
( mail address of the list is:)6 1098( The)1 221(in the body.)2 491 3 2393 7152 t
(J)720 7680 w
(. .)1 47 1 759 7625 t
( 10)1 1829( change: Version 1.6)3 850( Last)1 1434(org Schilling)1 528 4 759 7680 t
cleartomark
showpage
restore
%%EndPage: 10 10
%%Page: 11 11
save
mark
11 pagesetup
10 R f
( Schily)1 1267(CDRECORD \( 1 \))3 709 2 720 480 t
10 S1 f
(\302)2696 480 w
10 R f
( \( 1 \))3 164( CDRECORD)1 1557(s USER COMMANDS)2 950 3 2729 480 t
(cdwrite)1440 960 w
10 S1 f
(@)1739 960 w
10 R f
(lists.debian.org)1831 960 w
9 B f
(AUTHOR)720 1248 w
10 R f
(J)1080 1368 w
(. .)1 47 1 1119 1313 t
(org Schilling)1 528 1 1119 1368 t
(Seestr. 110)1 452 1 1080 1488 t
(D-13353 Berlin)1 638 1 1080 1608 t
(Germany)1080 1728 w
(Additional information can be found on:)5 1658 1 1080 1896 t
(http://www.fokus.gmd.de/nthp/employees/schilling/cdrecord.html)1080 2016 w
(Mail bugs and suggestions to:)4 1227 1 1080 2184 t
10 B f
(joerg)1080 2352 w
10 S1 f
(@)1301 2352 w
10 B f
(schily.isdn.cs.tu-berlin.de)1393 2352 w
10 R f
(or)2511 2352 w
10 B f
(js)2627 2352 w
10 S1 f
(@)2699 2352 w
10 B f
(cs.tu-berlin.de)2791 2352 w
10 R f
(or)3435 2352 w
10 B f
(schilling)3551 2352 w
10 S1 f
(@)3908 2352 w
10 B f
(fokus.gmd.de)4000 2352 w
10 R f
(J)720 7680 w
(. .)1 47 1 759 7625 t
( 11)1 1829( change: Version 1.6)3 850( Last)1 1434(org Schilling)1 528 4 759 7680 t
cleartomark
showpage
restore
%%EndPage: 11 11
%%Trailer
done
%%DocumentFonts: Times-Roman Times-Bold Times-Italic Symbol
%%Pages: 11
