#ident "@(#)rules.aux	1.4 98/09/21 "
###########################################################################
# Written 1997 by J. Schilling
###########################################################################
#
# Rules for installing auxiliary files
#
###########################################################################
# This program is free software; you can redistribute it and/or modify
# it under the terms of the GNU General Public License as published by
# the Free Software Foundation; either version 2, or (at your option)
# any later version.
#
# This program is distributed in the hope that it will be useful,
# but WITHOUT ANY WARRANTY; without even the implied warranty of
# MERCHANTABILITY or FITNESS FOR A PARTICULAR PURPOSE.  See the
# GNU General Public License for more details.
#
# You should have received a copy of the GNU General Public License
# along with this program; see the file COPYING.  If not, write to
# the Free Software Foundation, 675 Mass Ave, Cambridge, MA 02139, USA.
###########################################################################
PTARGET=	$(TARGET)
SRCFILE=	$(TARGET)
###########################################################################

all:		$(SRCFILE)

###########################################################################
include		$(SRCROOT)/$(RULESDIR)/rules.clr
include		$(SRCROOT)/$(RULESDIR)/rules.ins
include		$(SRCROOT)/$(RULESDIR)/rules.tag
include		$(SRCROOT)/$(RULESDIR)/rules.hlp
include		$(SRCROOT)/$(RULESDIR)/rules.cnf
include		$(SRCROOT)/$(RULESDIR)/dummy.dep
###########################################################################
